a:165:{i:0;a:3:{i:0;s:14:"document_start";i:1;a:0:{}i:2;i:0;}i:1;a:3:{i:0;s:6:"header";i:1;a:3:{i:0;s:69:"Procédure pour créer un utilisateur sans réception d'adresse email";i:1;i:2;i:2;i:1;}i:2;i:1;}i:2;a:3:{i:0;s:12:"section_open";i:1;a:1:{i:0;i:2;}i:2;i:1;}i:3;a:3:{i:0;s:6:"p_open";i:1;a:0:{}i:2;i:1;}i:4;a:3:{i:0;s:13:"emphasis_open";i:1;a:0:{}i:2;i:83;}i:5;a:3:{i:0;s:11:"strong_open";i:1;a:0:{}i:2;i:85;}i:6;a:3:{i:0;s:5:"cdata";i:1;a:1:{i:0;s:8:"Sources:";}i:2;i:87;}i:7;a:3:{i:0;s:12:"strong_close";i:1;a:0:{}i:2;i:95;}i:8;a:3:{i:0;s:5:"cdata";i:1;a:1:{i:0;s:1:"
";}i:2;i:97;}i:9;a:3:{i:0;s:12:"externallink";i:1;a:2:{i:0;s:86:"http://stackoverflow.com/questions/2145023/mantis-new-user-registration-without-email/";i:1;s:1:"1";}i:2;i:98;}i:10;a:3:{i:0;s:14:"emphasis_close";i:1;a:0:{}i:2;i:190;}i:11;a:3:{i:0;s:7:"p_close";i:1;a:0:{}i:2;i:192;}i:12;a:3:{i:0;s:13:"section_close";i:1;a:0:{}i:2;i:195;}i:13;a:3:{i:0;s:6:"header";i:1;a:3:{i:0;s:55:"Procédure "Warning: Admin directory should be removed"";i:1;i:2;i:2;i:195;}i:2;i:195;}i:14;a:3:{i:0;s:12:"section_open";i:1;a:1:{i:0;i:2;}i:2;i:195;}i:15;a:3:{i:0;s:6:"p_open";i:1;a:0:{}i:2;i:195;}i:16;a:3:{i:0;s:13:"emphasis_open";i:1;a:0:{}i:2;i:263;}i:17;a:3:{i:0;s:11:"strong_open";i:1;a:0:{}i:2;i:265;}i:18;a:3:{i:0;s:5:"cdata";i:1;a:1:{i:0;s:8:"Sources:";}i:2;i:267;}i:19;a:3:{i:0;s:12:"strong_close";i:1;a:0:{}i:2;i:275;}i:20;a:3:{i:0;s:5:"cdata";i:1;a:1:{i:0;s:1:"
";}i:2;i:277;}i:21;a:3:{i:0;s:12:"externallink";i:1;a:2:{i:0;s:56:"http://www.mantisbt.org/forums/viewtopic.php?f=3&t=3218/";i:1;s:1:"1";}i:2;i:278;}i:22;a:3:{i:0;s:14:"emphasis_close";i:1;a:0:{}i:2;i:340;}i:23;a:3:{i:0;s:7:"p_close";i:1;a:0:{}i:2;i:342;}i:24;a:3:{i:0;s:6:"p_open";i:1;a:0:{}i:2;i:342;}i:25;a:3:{i:0;s:5:"cdata";i:1;a:1:{i:0;s:421:"Immediately go to Manage and create at least one administrator level account. Immediately after that DISABLE or DELETE the administrator account. You can recreate it but you should delete the account to prevent the cookie_string from being used to trick the package. It would be even better to rename the account or delete it permanently. REMEMBER: After setting up the package, REMOVE the default administrator account. ";}i:2;i:344;}i:26;a:3:{i:0;s:7:"p_close";i:1;a:0:{}i:2;i:765;}i:27;a:3:{i:0;s:13:"section_close";i:1;a:0:{}i:2;i:768;}i:28;a:3:{i:0;s:6:"header";i:1;a:3:{i:0;s:45:"Procédure pour réparer le Captcah de Mantis";i:1;i:2;i:2;i:768;}i:2;i:768;}i:29;a:3:{i:0;s:12:"section_open";i:1;a:1:{i:0;i:2;}i:2;i:768;}i:30;a:3:{i:0;s:6:"p_open";i:1;a:0:{}i:2;i:768;}i:31;a:3:{i:0;s:13:"emphasis_open";i:1;a:0:{}i:2;i:826;}i:32;a:3:{i:0;s:11:"strong_open";i:1;a:0:{}i:2;i:828;}i:33;a:3:{i:0;s:5:"cdata";i:1;a:1:{i:0;s:8:"Sources:";}i:2;i:830;}i:34;a:3:{i:0;s:12:"strong_close";i:1;a:0:{}i:2;i:838;}i:35;a:3:{i:0;s:5:"cdata";i:1;a:1:{i:0;s:1:"
";}i:2;i:840;}i:36;a:3:{i:0;s:12:"externallink";i:1;a:2:{i:0;s:70:"http://blog.suncrescent.net/2012/05/mantis-captcha-open_basedir-error/";i:1;s:1:"1";}i:2;i:841;}i:37;a:3:{i:0;s:14:"emphasis_close";i:1;a:0:{}i:2;i:917;}i:38;a:3:{i:0;s:7:"p_close";i:1;a:0:{}i:2;i:919;}i:39;a:3:{i:0;s:6:"p_open";i:1;a:0:{}i:2;i:919;}i:40;a:3:{i:0;s:5:"cdata";i:1;a:1:{i:0;s:38:"Refer to the source (in construction) ";}i:2;i:921;}i:41;a:3:{i:0;s:7:"p_close";i:1;a:0:{}i:2;i:959;}i:42;a:3:{i:0;s:13:"section_close";i:1;a:0:{}i:2;i:961;}i:43;a:3:{i:0;s:6:"header";i:1;a:3:{i:0;s:63:"Procédure pour changer la sévérités dans Mantis à A,B,C,D:";i:1;i:2;i:2;i:961;}i:2;i:961;}i:44;a:3:{i:0;s:12:"section_open";i:1;a:1:{i:0;i:2;}i:2;i:961;}i:45;a:3:{i:0;s:6:"p_open";i:1;a:0:{}i:2;i:961;}i:46;a:3:{i:0;s:13:"emphasis_open";i:1;a:0:{}i:2;i:1038;}i:47;a:3:{i:0;s:11:"strong_open";i:1;a:0:{}i:2;i:1040;}i:48;a:3:{i:0;s:5:"cdata";i:1;a:1:{i:0;s:8:"Sources:";}i:2;i:1042;}i:49;a:3:{i:0;s:12:"strong_close";i:1;a:0:{}i:2;i:1050;}i:50;a:3:{i:0;s:5:"cdata";i:1;a:1:{i:0;s:1:"
";}i:2;i:1052;}i:51;a:3:{i:0;s:12:"externallink";i:1;a:2:{i:0;s:92:"http://www.mantisbt.org/docs/master-1.2.x/en/administration_guide.html#ADMIN.CUSTOMIZE.ENUMS";i:1;s:1:"1";}i:2;i:1053;}i:52;a:3:{i:0;s:5:"cdata";i:1;a:1:{i:0;s:2:",
";}i:2;i:1151;}i:53;a:3:{i:0;s:12:"externallink";i:1;a:2:{i:0;s:73:"http://www.mantisbt.org/manual/manual.customizing.mantis.enumerations.php";i:1;s:1:"2";}i:2;i:1153;}i:54;a:3:{i:0;s:14:"emphasis_close";i:1;a:0:{}i:2;i:1232;}i:55;a:3:{i:0;s:5:"cdata";i:1;a:1:{i:0;s:0:"";}i:2;i:1234;}i:56;a:3:{i:0;s:7:"p_close";i:1;a:0:{}i:2;i:1235;}i:57;a:3:{i:0;s:10:"listu_open";i:1;a:0:{}i:2;i:1235;}i:58;a:3:{i:0;s:13:"listitem_open";i:1;a:1:{i:0;i:1;}i:2;i:1235;}i:59;a:3:{i:0;s:16:"listcontent_open";i:1;a:0:{}i:2;i:1235;}i:60;a:3:{i:0;s:5:"cdata";i:1;a:1:{i:0;s:22:" 1. Créez un fichier ";}i:2;i:1239;}i:61;a:3:{i:0;s:18:"doublequoteopening";i:1;a:0:{}i:2;i:1261;}i:62;a:3:{i:0;s:5:"cdata";i:1;a:1:{i:0;s:24:"custom_constants_inc.php";}i:2;i:1262;}i:63;a:3:{i:0;s:18:"doublequoteclosing";i:1;a:0:{}i:2;i:1286;}i:64;a:3:{i:0;s:5:"cdata";i:1;a:1:{i:0;s:28:" dans votre dossier /Mantis/";}i:2;i:1287;}i:65;a:3:{i:0;s:17:"listcontent_close";i:1;a:0:{}i:2;i:1315;}i:66;a:3:{i:0;s:14:"listitem_close";i:1;a:0:{}i:2;i:1315;}i:67;a:3:{i:0;s:13:"listitem_open";i:1;a:1:{i:0;i:1;}i:2;i:1315;}i:68;a:3:{i:0;s:16:"listcontent_open";i:1;a:0:{}i:2;i:1315;}i:69;a:3:{i:0;s:5:"cdata";i:1;a:1:{i:0;s:40:" 2. Dans ce fichier introduisez ce code:";}i:2;i:1319;}i:70;a:3:{i:0;s:17:"listcontent_close";i:1;a:0:{}i:2;i:1359;}i:71;a:3:{i:0;s:14:"listitem_close";i:1;a:0:{}i:2;i:1359;}i:72;a:3:{i:0;s:11:"listu_close";i:1;a:0:{}i:2;i:1359;}i:73;a:3:{i:0;s:6:"p_open";i:1;a:0:{}i:2;i:1359;}i:74;a:3:{i:0;s:11:"unformatted";i:1;a:1:{i:0;s:80:"<?php define( 'A', 11); define( 'B', 22); define( 'C', 33); define( 'D', 44); ?>";}i:2;i:1368;}i:75;a:3:{i:0;s:7:"p_close";i:1;a:0:{}i:2;i:1457;}i:76;a:3:{i:0;s:10:"listu_open";i:1;a:0:{}i:2;i:1457;}i:77;a:3:{i:0;s:13:"listitem_open";i:1;a:1:{i:0;i:1;}i:2;i:1457;}i:78;a:3:{i:0;s:16:"listcontent_open";i:1;a:0:{}i:2;i:1457;}i:79;a:3:{i:0;s:5:"cdata";i:1;a:1:{i:0;s:22:" 3. Créez un fichier ";}i:2;i:1461;}i:80;a:3:{i:0;s:18:"doublequoteopening";i:1;a:0:{}i:2;i:1483;}i:81;a:3:{i:0;s:5:"cdata";i:1;a:1:{i:0;s:22:"custom_strings_inc.php";}i:2;i:1484;}i:82;a:3:{i:0;s:18:"doublequoteclosing";i:1;a:0:{}i:2;i:1506;}i:83;a:3:{i:0;s:5:"cdata";i:1;a:1:{i:0;s:28:" dans votre dossier /Mantis/";}i:2;i:1507;}i:84;a:3:{i:0;s:17:"listcontent_close";i:1;a:0:{}i:2;i:1535;}i:85;a:3:{i:0;s:14:"listitem_close";i:1;a:0:{}i:2;i:1535;}i:86;a:3:{i:0;s:13:"listitem_open";i:1;a:1:{i:0;i:1;}i:2;i:1535;}i:87;a:3:{i:0;s:16:"listcontent_open";i:1;a:0:{}i:2;i:1535;}i:88;a:3:{i:0;s:5:"cdata";i:1;a:1:{i:0;s:40:" 4. Dans ce fichier introduisez ce code:";}i:2;i:1539;}i:89;a:3:{i:0;s:17:"listcontent_close";i:1;a:0:{}i:2;i:1579;}i:90;a:3:{i:0;s:14:"listitem_close";i:1;a:0:{}i:2;i:1579;}i:91;a:3:{i:0;s:11:"listu_close";i:1;a:0:{}i:2;i:1579;}i:92;a:3:{i:0;s:6:"p_open";i:1;a:0:{}i:2;i:1579;}i:93;a:3:{i:0;s:11:"unformatted";i:1;a:1:{i:0;s:58:" <?php $g_severity_enum_string = '11:A,22:B,33:C,44:D'; ?>";}i:2;i:1588;}i:94;a:3:{i:0;s:7:"p_close";i:1;a:0:{}i:2;i:1655;}i:95;a:3:{i:0;s:10:"listu_open";i:1;a:0:{}i:2;i:1655;}i:96;a:3:{i:0;s:13:"listitem_open";i:1;a:1:{i:0;i:1;}i:2;i:1655;}i:97;a:3:{i:0;s:16:"listcontent_open";i:1;a:0:{}i:2;i:1655;}i:98;a:3:{i:0;s:5:"cdata";i:1;a:1:{i:0;s:26:" 5. Aller dans le fichier ";}i:2;i:1659;}i:99;a:3:{i:0;s:18:"doublequoteopening";i:1;a:0:{}i:2;i:1685;}i:100;a:3:{i:0;s:5:"cdata";i:1;a:1:{i:0;s:23:"config_defaults_inc.php";}i:2;i:1686;}i:101;a:3:{i:0;s:18:"doublequoteclosing";i:1;a:0:{}i:2;i:1709;}i:102;a:3:{i:0;s:5:"cdata";i:1;a:1:{i:0;s:28:" dans votre dossier /Mantis/";}i:2;i:1710;}i:103;a:3:{i:0;s:17:"listcontent_close";i:1;a:0:{}i:2;i:1738;}i:104;a:3:{i:0;s:14:"listitem_close";i:1;a:0:{}i:2;i:1738;}i:105;a:3:{i:0;s:13:"listitem_open";i:1;a:1:{i:0;i:1;}i:2;i:1738;}i:106;a:3:{i:0;s:16:"listcontent_open";i:1;a:0:{}i:2;i:1738;}i:107;a:3:{i:0;s:5:"cdata";i:1;a:1:{i:0;s:44:" 6. Dans ce fichier rechercher et remplacer:";}i:2;i:1742;}i:108;a:3:{i:0;s:17:"listcontent_close";i:1;a:0:{}i:2;i:1786;}i:109;a:3:{i:0;s:14:"listitem_close";i:1;a:0:{}i:2;i:1786;}i:110;a:3:{i:0;s:11:"listu_close";i:1;a:0:{}i:2;i:1786;}i:111;a:3:{i:0;s:6:"p_open";i:1;a:0:{}i:2;i:1786;}i:112;a:3:{i:0;s:5:"cdata";i:1;a:1:{i:0;s:1:" ";}i:2;i:1787;}i:113;a:3:{i:0;s:13:"emphasis_open";i:1;a:0:{}i:2;i:1788;}i:114;a:3:{i:0;s:11:"strong_open";i:1;a:0:{}i:2;i:1790;}i:115;a:3:{i:0;s:5:"cdata";i:1;a:1:{i:0;s:10:"Remplacer:";}i:2;i:1792;}i:116;a:3:{i:0;s:12:"strong_close";i:1;a:0:{}i:2;i:1802;}i:117;a:3:{i:0;s:14:"emphasis_close";i:1;a:0:{}i:2;i:1804;}i:118;a:3:{i:0;s:11:"unformatted";i:1;a:1:{i:0;s:31:" $g_severity_enum_string="...";";}i:2;i:1814;}i:119;a:3:{i:0;s:5:"cdata";i:1;a:1:{i:0;s:1:"
";}i:2;i:1854;}i:120;a:3:{i:0;s:13:"emphasis_open";i:1;a:0:{}i:2;i:1855;}i:121;a:3:{i:0;s:11:"strong_open";i:1;a:0:{}i:2;i:1857;}i:122;a:3:{i:0;s:5:"cdata";i:1;a:1:{i:0;s:3:"par";}i:2;i:1859;}i:123;a:3:{i:0;s:12:"strong_close";i:1;a:0:{}i:2;i:1862;}i:124;a:3:{i:0;s:14:"emphasis_close";i:1;a:0:{}i:2;i:1864;}i:125;a:3:{i:0;s:11:"unformatted";i:1;a:1:{i:0;s:48:" $g_severity_enum_string= '11:A,22:B,33:C,44:D';";}i:2;i:1874;}i:126;a:3:{i:0;s:7:"p_close";i:1;a:0:{}i:2;i:1931;}i:127;a:3:{i:0;s:6:"p_open";i:1;a:0:{}i:2;i:1931;}i:128;a:3:{i:0;s:5:"cdata";i:1;a:1:{i:0;s:24:"De ce que j'ai compris, ";}i:2;i:1934;}i:129;a:3:{i:0;s:11:"strong_open";i:1;a:0:{}i:2;i:1958;}i:130;a:3:{i:0;s:13:"emphasis_open";i:1;a:0:{}i:2;i:1960;}i:131;a:3:{i:0;s:5:"cdata";i:1;a:1:{i:0;s:24:"custom_constants_inc.php";}i:2;i:1962;}i:132;a:3:{i:0;s:14:"emphasis_close";i:1;a:0:{}i:2;i:1986;}i:133;a:3:{i:0;s:12:"strong_close";i:1;a:0:{}i:2;i:1988;}i:134;a:3:{i:0;s:5:"cdata";i:1;a:1:{i:0;s:50:" Permet de définir nos propres constante dans le ";}i:2;i:1990;}i:135;a:3:{i:0;s:18:"doublequoteopening";i:1;a:0:{}i:2;i:2040;}i:136;a:3:{i:0;s:5:"cdata";i:1;a:1:{i:0;s:8:"logiciel";}i:2;i:2041;}i:137;a:3:{i:0;s:18:"doublequoteclosing";i:1;a:0:{}i:2;i:2049;}i:138;a:3:{i:0;s:5:"cdata";i:1;a:1:{i:0;s:122:" mantis (Attention de ne pas rentrer en conflit avec les existantes. C'est pourquoi, j'associe 11 et pas 10 par exemple.).";}i:2;i:2050;}i:139;a:3:{i:0;s:7:"p_close";i:1;a:0:{}i:2;i:2172;}i:140;a:3:{i:0;s:6:"p_open";i:1;a:0:{}i:2;i:2172;}i:141;a:3:{i:0;s:11:"strong_open";i:1;a:0:{}i:2;i:2174;}i:142;a:3:{i:0;s:13:"emphasis_open";i:1;a:0:{}i:2;i:2176;}i:143;a:3:{i:0;s:5:"cdata";i:1;a:1:{i:0;s:22:"custom_strings_inc.php";}i:2;i:2178;}i:144;a:3:{i:0;s:14:"emphasis_close";i:1;a:0:{}i:2;i:2200;}i:145;a:3:{i:0;s:12:"strong_close";i:1;a:0:{}i:2;i:2202;}i:146;a:3:{i:0;s:5:"cdata";i:1;a:1:{i:0;s:165:" Permet de lier les variables à leurs définition de constante.
On aurait aussi pu ne pas créer ce fichier et directement aller changer les noms de constante dans ";}i:2;i:2204;}i:147;a:3:{i:0;s:11:"strong_open";i:1;a:0:{}i:2;i:2369;}i:148;a:3:{i:0;s:5:"cdata";i:1;a:1:{i:0;s:24:"/lang/string_english.txt";}i:2;i:2371;}i:149;a:3:{i:0;s:12:"strong_close";i:1;a:0:{}i:2;i:2395;}i:150;a:3:{i:0;s:5:"cdata";i:1;a:1:{i:0;s:112:". Cela aurait pour effet de ne changer la sévérité seulement pour l'anglais. Laissant les autres langages à ";}i:2;i:2397;}i:151;a:3:{i:0;s:11:"strong_open";i:1;a:0:{}i:2;i:2509;}i:152;a:3:{i:0;s:5:"cdata";i:1;a:1:{i:0;s:19:"@11@,@22@,@33@,@44@";}i:2;i:2511;}i:153;a:3:{i:0;s:12:"strong_close";i:1;a:0:{}i:2;i:2530;}i:154;a:3:{i:0;s:7:"p_close";i:1;a:0:{}i:2;i:2532;}i:155;a:3:{i:0;s:6:"p_open";i:1;a:0:{}i:2;i:2532;}i:156;a:3:{i:0;s:11:"strong_open";i:1;a:0:{}i:2;i:2534;}i:157;a:3:{i:0;s:13:"emphasis_open";i:1;a:0:{}i:2;i:2536;}i:158;a:3:{i:0;s:5:"cdata";i:1;a:1:{i:0;s:15:" config_inc.php";}i:2;i:2538;}i:159;a:3:{i:0;s:14:"emphasis_close";i:1;a:0:{}i:2;i:2553;}i:160;a:3:{i:0;s:12:"strong_close";i:1;a:0:{}i:2;i:2555;}i:161;a:3:{i:0;s:5:"cdata";i:1;a:1:{i:0;s:80:" On change la logique du programme pour qu'il adhère à notre nouvelle logique.";}i:2;i:2557;}i:162;a:3:{i:0;s:7:"p_close";i:1;a:0:{}i:2;i:2637;}i:163;a:3:{i:0;s:13:"section_close";i:1;a:0:{}i:2;i:2637;}i:164;a:3:{i:0;s:12:"document_end";i:1;a:0:{}i:2;i:2637;}}