a:57:{i:0;a:3:{i:0;s:14:"document_start";i:1;a:0:{}i:2;i:0;}i:1;a:3:{i:0;s:6:"header";i:1;a:3:{i:0;s:15:"Mantis/DokuWiki";i:1;i:1;i:2;i:1;}i:2;i:1;}i:2;a:3:{i:0;s:12:"section_open";i:1;a:1:{i:0;i:1;}i:2;i:1;}i:3;a:3:{i:0;s:6:"p_open";i:1;a:0:{}i:2;i:1;}i:4;a:3:{i:0;s:5:"cdata";i:1;a:1:{i:0;s:45:"Recherche sur comment lier Mantis et Dokuwiki";}i:2;i:31;}i:5;a:3:{i:0;s:7:"p_close";i:1;a:0:{}i:2;i:76;}i:6;a:3:{i:0;s:13:"section_close";i:1;a:0:{}i:2;i:80;}i:7;a:3:{i:0;s:6:"header";i:1;a:3:{i:0;s:4:"Easy";i:1;i:2;i:2;i:80;}i:2;i:80;}i:8;a:3:{i:0;s:12:"section_open";i:1;a:1:{i:0;i:2;}i:2;i:80;}i:9;a:3:{i:0;s:10:"listu_open";i:1;a:0:{}i:2;i:96;}i:10;a:3:{i:0;s:13:"listitem_open";i:1;a:1:{i:0;i:1;}i:2;i:96;}i:11;a:3:{i:0;s:16:"listcontent_open";i:1;a:0:{}i:2;i:96;}i:12;a:3:{i:0;s:5:"cdata";i:1;a:1:{i:0;s:10:" Plug-in: ";}i:2;i:101;}i:13;a:3:{i:0;s:12:"externallink";i:1;a:2:{i:0;s:49:"https://www.dokuwiki.org/plugin:mantis?s[]=mantis";i:1;s:21:"Mantis project linker";}i:2;i:111;}i:14;a:3:{i:0;s:5:"cdata";i:1;a:1:{i:0;s:1:" ";}i:2;i:186;}i:15;a:3:{i:0;s:6:"entity";i:1;a:1:{i:0;s:2:">>";}i:2;i:187;}i:16;a:3:{i:0;s:5:"cdata";i:1;a:1:{i:0;s:9:" Syntaxe:";}i:2;i:189;}i:17;a:3:{i:0;s:11:"unformatted";i:1;a:1:{i:0;s:23:"{{Mantis>project name}}";}i:2;i:206;}i:18;a:3:{i:0;s:17:"listcontent_close";i:1;a:0:{}i:2;i:238;}i:19;a:3:{i:0;s:14:"listitem_close";i:1;a:0:{}i:2;i:238;}i:20;a:3:{i:0;s:11:"listu_close";i:1;a:0:{}i:2;i:238;}i:21;a:3:{i:0;s:13:"section_close";i:1;a:0:{}i:2;i:240;}i:22;a:3:{i:0;s:6:"header";i:1;a:3:{i:0;s:6:"Normal";i:1;i:2;i:2;i:240;}i:2;i:240;}i:23;a:3:{i:0;s:12:"section_open";i:1;a:1:{i:0;i:2;}i:2;i:240;}i:24;a:3:{i:0;s:6:"p_open";i:1;a:0:{}i:2;i:240;}i:25;a:3:{i:0;s:5:"cdata";i:1;a:1:{i:0;s:27:"Plug-in Doku pour mantis: 
";}i:2;i:260;}i:26;a:3:{i:0;s:12:"externallink";i:1;a:2:{i:0;s:83:"http://www.mantisbt.org/wiki/doku.php/mantisbt:issue:7075:integration_with_dokuwiki";i:1;s:3:"Doc";}i:2;i:287;}i:27;a:3:{i:0;s:5:"cdata";i:1;a:1:{i:0;s:0:"";}i:2;i:378;}i:28;a:3:{i:0;s:7:"p_close";i:1;a:0:{}i:2;i:379;}i:29;a:3:{i:0;s:13:"section_close";i:1;a:0:{}i:2;i:379;}i:30;a:3:{i:0;s:6:"header";i:1;a:3:{i:0;s:4:"Hard";i:1;i:2;i:2;i:379;}i:2;i:379;}i:31;a:3:{i:0;s:12:"section_open";i:1;a:1:{i:0;i:2;}i:2;i:379;}i:32;a:3:{i:0;s:6:"p_open";i:1;a:0:{}i:2;i:379;}i:33;a:3:{i:0;s:12:"externallink";i:1;a:2:{i:0;s:60:"http://www.mantisbt.org/wiki/doku.php?id=mantisbt:issue:8253";i:1;s:33:"Lier Mantis à wiki (session too)";}i:2;i:397;}i:34;a:3:{i:0;s:7:"p_close";i:1;a:0:{}i:2;i:495;}i:35;a:3:{i:0;s:13:"section_close";i:1;a:0:{}i:2;i:498;}i:36;a:3:{i:0;s:6:"header";i:1;a:3:{i:0;s:20:"Plug-in intéressant";i:1;i:3;i:2;i:498;}i:2;i:498;}i:37;a:3:{i:0;s:12:"section_open";i:1;a:1:{i:0;i:3;}i:2;i:498;}i:38;a:3:{i:0;s:6:"p_open";i:1;a:0:{}i:2;i:498;}i:39;a:3:{i:0;s:5:"cdata";i:1;a:1:{i:0;s:2:"\\";}i:2;i:530;}i:40;a:3:{i:0;s:12:"externallink";i:1;a:2:{i:0;s:53:"http://deboutv.free.fr/mantis/plugin.php?plugin=Notif";i:1;s:5:"Notif";}i:2;i:532;}i:41;a:3:{i:0;s:5:"cdata";i:1;a:1:{i:0;s:31:": link mantis to skype/email
\\";}i:2;i:595;}i:42;a:3:{i:0;s:12:"externallink";i:1;a:2:{i:0;s:54:"http://deboutv.free.fr/mantis/plugin.php?plugin=MyView";i:1;s:6:"MyView";}i:2;i:626;}i:43;a:3:{i:0;s:5:"cdata";i:1;a:1:{i:0;s:57:": Give to each user the possibility to change his view
\\";}i:2;i:691;}i:44;a:3:{i:0;s:12:"externallink";i:1;a:2:{i:0;s:54:"http://deboutv.free.fr/mantis/plugin.php?plugin=Weekly";i:1;s:6:"Weekly";}i:2;i:748;}i:45;a:3:{i:0;s:5:"cdata";i:1;a:1:{i:0;s:56:": Retourne des rapports toutes les semaines des bugs.
\\";}i:2;i:813;}i:46;a:3:{i:0;s:12:"externallink";i:1;a:2:{i:0;s:52:"http://deboutv.free.fr/mantis/plugin.php?plugin=Wiki";i:1;s:4:"Wiki";}i:2;i:869;}i:47;a:3:{i:0;s:5:"cdata";i:1;a:1:{i:0;s:29:": Gestion facile de wiki (??)";}i:2;i:930;}i:48;a:3:{i:0;s:7:"p_close";i:1;a:0:{}i:2;i:959;}i:49;a:3:{i:0;s:13:"section_close";i:1;a:0:{}i:2;i:961;}i:50;a:3:{i:0;s:6:"header";i:1;a:3:{i:0;s:37:"Permettre Mantis d'utiliser de l'HTML";i:1;i:3;i:2;i:961;}i:2;i:961;}i:51;a:3:{i:0;s:12:"section_open";i:1;a:1:{i:0;i:3;}i:2;i:961;}i:52;a:3:{i:0;s:6:"p_open";i:1;a:0:{}i:2;i:961;}i:53;a:3:{i:0;s:12:"externallink";i:1;a:2:{i:0;s:60:"http://www.mantisbt.org/manual/manual.configuration.html.php";i:1;s:60:"http://www.mantisbt.org/manual/manual.configuration.html.php";}i:2;i:1010;}i:54;a:3:{i:0;s:7:"p_close";i:1;a:0:{}i:2;i:1135;}i:55;a:3:{i:0;s:13:"section_close";i:1;a:0:{}i:2;i:1137;}i:56;a:3:{i:0;s:12:"document_end";i:1;a:0:{}i:2;i:1137;}}