a:26:{i:0;a:3:{i:0;s:14:"document_start";i:1;a:0:{}i:2;i:0;}i:1;a:3:{i:0;s:6:"header";i:1;a:3:{i:0;s:7:"Projets";i:1;i:1;i:2;i:1;}i:2;i:1;}i:2;a:3:{i:0;s:12:"section_open";i:1;a:1:{i:0;i:1;}i:2;i:1;}i:3;a:3:{i:0;s:6:"p_open";i:1;a:0:{}i:2;i:1;}i:4;a:3:{i:0;s:4:"html";i:1;a:1:{i:0;s:152:"
<h1> TuxDomination </h1>
Développeur: Alibatiste & VgQD<br/>
Facebook page : <a href="https://www.facebook.com/groups/378799295489890/">ici</a><br/>

";}i:2;i:30;}i:5;a:3:{i:0;s:7:"p_close";i:1;a:0:{}i:2;i:189;}i:6;a:3:{i:0;s:13:"section_close";i:1;a:0:{}i:2;i:191;}i:7;a:3:{i:0;s:6:"header";i:1;a:3:{i:0;s:19:"TuxDominationEditor";i:1;i:2;i:2;i:191;}i:2;i:191;}i:8;a:3:{i:0;s:12:"section_open";i:1;a:1:{i:0;i:2;}i:2;i:191;}i:9;a:3:{i:0;s:6:"p_open";i:1;a:0:{}i:2;i:191;}i:10;a:3:{i:0;s:5:"cdata";i:1;a:1:{i:0;s:18:"Développeur: VgQD";}i:2;i:223;}i:11;a:3:{i:0;s:7:"p_close";i:1;a:0:{}i:2;i:241;}i:12;a:3:{i:0;s:13:"section_close";i:1;a:0:{}i:2;i:243;}i:13;a:3:{i:0;s:6:"header";i:1;a:3:{i:0;s:12:"Black Mantis";i:1;i:2;i:2;i:243;}i:2;i:243;}i:14;a:3:{i:0;s:12:"section_open";i:1;a:1:{i:0;i:2;}i:2;i:243;}i:15;a:3:{i:0;s:6:"p_open";i:1;a:0:{}i:2;i:243;}i:16;a:3:{i:0;s:5:"cdata";i:1;a:1:{i:0;s:18:"Développeur: Eloi";}i:2;i:268;}i:17;a:3:{i:0;s:7:"p_close";i:1;a:0:{}i:2;i:286;}i:18;a:3:{i:0;s:13:"section_close";i:1;a:0:{}i:2;i:288;}i:19;a:3:{i:0;s:6:"header";i:1;a:3:{i:0;s:24:"Replicateur (TDD testes)";i:1;i:2;i:2;i:288;}i:2;i:288;}i:20;a:3:{i:0;s:12:"section_open";i:1;a:1:{i:0;i:2;}i:2;i:288;}i:21;a:3:{i:0;s:6:"p_open";i:1;a:0:{}i:2;i:288;}i:22;a:3:{i:0;s:5:"cdata";i:1;a:1:{i:0;s:18:"Développeur: Eloi";}i:2;i:325;}i:23;a:3:{i:0;s:7:"p_close";i:1;a:0:{}i:2;i:343;}i:24;a:3:{i:0;s:13:"section_close";i:1;a:0:{}i:2;i:344;}i:25;a:3:{i:0;s:12:"document_end";i:1;a:0:{}i:2;i:344;}}