a:66:{i:0;a:3:{i:0;s:14:"document_start";i:1;a:0:{}i:2;i:0;}i:1;a:3:{i:0;s:6:"header";i:1;a:3:{i:0;s:29:"Etat d'avancement des projets";i:1;i:1;i:2;i:1;}i:2;i:1;}i:2;a:3:{i:0;s:12:"section_open";i:1;a:1:{i:0;i:1;}i:2;i:1;}i:3;a:3:{i:0;s:6:"p_open";i:1;a:0:{}i:2;i:1;}i:4;a:3:{i:0;s:5:"cdata";i:1;a:1:{i:0;s:62:"Voici tous les reports à traiter sur les différents projets.";}i:2;i:45;}i:5;a:3:{i:0;s:7:"p_close";i:1;a:0:{}i:2;i:107;}i:6;a:3:{i:0;s:2:"hr";i:1;a:0:{}i:2;i:107;}i:7;a:3:{i:0;s:13:"section_close";i:1;a:0:{}i:2;i:113;}i:8;a:3:{i:0;s:6:"header";i:1;a:3:{i:0;s:26:"Site(s) web(s) officiel(s)";i:1;i:2;i:2;i:113;}i:2;i:113;}i:9;a:3:{i:0;s:12:"section_open";i:1;a:1:{i:0;i:2;}i:2;i:113;}i:10;a:3:{i:0;s:13:"section_close";i:1;a:0:{}i:2;i:153;}i:11;a:3:{i:0;s:6:"header";i:1;a:3:{i:0;s:21:"Gamer Kit Application";i:1;i:4;i:2;i:153;}i:2;i:153;}i:12;a:3:{i:0;s:12:"section_open";i:1;a:1:{i:0;i:4;}i:2;i:153;}i:13;a:3:{i:0;s:6:"p_open";i:1;a:0:{}i:2;i:153;}i:14;a:3:{i:0;s:5:"cdata";i:1;a:1:{i:0;s:17:"Portfolio d'Eloi
";}i:2;i:182;}i:15;a:3:{i:0;s:6:"plugin";i:1;a:4:{i:0;s:6:"mantis";i:1;a:2:{i:0;s:6:"Mantis";i:1;s:21:"Gamer Kit Application";}i:2;i:5;i:3;s:32:"{{Mantis>Gamer Kit Application}}";}i:2;i:199;}i:16;a:3:{i:0;s:7:"p_close";i:1;a:0:{}i:2;i:231;}i:17;a:3:{i:0;s:2:"hr";i:1;a:0:{}i:2;i:231;}i:18;a:3:{i:0;s:13:"section_close";i:1;a:0:{}i:2;i:237;}i:19;a:3:{i:0;s:6:"header";i:1;a:3:{i:0;s:9:"Logiciels";i:1;i:2;i:2;i:237;}i:2;i:237;}i:20;a:3:{i:0;s:12:"section_open";i:1;a:1:{i:0;i:2;}i:2;i:237;}i:21;a:3:{i:0;s:13:"section_close";i:1;a:0:{}i:2;i:259;}i:22;a:3:{i:0;s:6:"header";i:1;a:3:{i:0;s:11:"BlackMantis";i:1;i:4;i:2;i:259;}i:2;i:259;}i:23;a:3:{i:0;s:12:"section_open";i:1;a:1:{i:0;i:4;}i:2;i:259;}i:24;a:3:{i:0;s:6:"p_open";i:1;a:0:{}i:2;i:259;}i:25;a:3:{i:0;s:5:"cdata";i:1;a:1:{i:0;s:46:"Logiciel d'édition de documentation de bugs.
";}i:2;i:279;}i:26;a:3:{i:0;s:6:"plugin";i:1;a:4:{i:0;s:6:"mantis";i:1;a:2:{i:0;s:6:"Mantis";i:1;s:11:"BlackMantis";}i:2;i:5;i:3;s:22:"{{Mantis>BlackMantis}}";}i:2;i:325;}i:27;a:3:{i:0;s:7:"p_close";i:1;a:0:{}i:2;i:347;}i:28;a:3:{i:0;s:2:"hr";i:1;a:0:{}i:2;i:347;}i:29;a:3:{i:0;s:13:"section_close";i:1;a:0:{}i:2;i:354;}i:30;a:3:{i:0;s:6:"header";i:1;a:3:{i:0;s:8:"Demineur";i:1;i:4;i:2;i:354;}i:2;i:354;}i:31;a:3:{i:0;s:12:"section_open";i:1;a:1:{i:0;i:4;}i:2;i:354;}i:32;a:3:{i:0;s:6:"p_open";i:1;a:0:{}i:2;i:354;}i:33;a:3:{i:0;s:5:"cdata";i:1;a:1:{i:0;s:27:"Jeu vidéo de type arcade.
";}i:2;i:370;}i:34;a:3:{i:0;s:6:"plugin";i:1;a:4:{i:0;s:6:"mantis";i:1;a:2:{i:0;s:6:"Mantis";i:1;s:8:"Demineur";}i:2;i:5;i:3;s:19:"{{Mantis>Demineur}}";}i:2;i:397;}i:35;a:3:{i:0;s:7:"p_close";i:1;a:0:{}i:2;i:416;}i:36;a:3:{i:0;s:2:"hr";i:1;a:0:{}i:2;i:416;}i:37;a:3:{i:0;s:13:"section_close";i:1;a:0:{}i:2;i:423;}i:38;a:3:{i:0;s:6:"header";i:1;a:3:{i:0;s:13:"TuxDomination";i:1;i:4;i:2;i:423;}i:2;i:423;}i:39;a:3:{i:0;s:12:"section_open";i:1;a:1:{i:0;i:4;}i:2;i:423;}i:40;a:3:{i:0;s:6:"p_open";i:1;a:0:{}i:2;i:423;}i:41;a:3:{i:0;s:5:"cdata";i:1;a:1:{i:0;s:23:"Jeu vidéo de Baptiste
";}i:2;i:444;}i:42;a:3:{i:0;s:6:"plugin";i:1;a:4:{i:0;s:6:"mantis";i:1;a:2:{i:0;s:6:"Mantis";i:1;s:13:"TuxDomination";}i:2;i:5;i:3;s:24:"{{Mantis>TuxDomination}}";}i:2;i:467;}i:43;a:3:{i:0;s:7:"p_close";i:1;a:0:{}i:2;i:491;}i:44;a:3:{i:0;s:2:"hr";i:1;a:0:{}i:2;i:491;}i:45;a:3:{i:0;s:13:"section_close";i:1;a:0:{}i:2;i:497;}i:46;a:3:{i:0;s:6:"header";i:1;a:3:{i:0;s:13:"Documentation";i:1;i:2;i:2;i:497;}i:2;i:497;}i:47;a:3:{i:0;s:12:"section_open";i:1;a:1:{i:0;i:2;}i:2;i:497;}i:48;a:3:{i:0;s:13:"section_close";i:1;a:0:{}i:2;i:523;}i:49;a:3:{i:0;s:6:"header";i:1;a:3:{i:0;s:7:"WikiDoc";i:1;i:4;i:2;i:523;}i:2;i:523;}i:50;a:3:{i:0;s:12:"section_open";i:1;a:1:{i:0;i:4;}i:2;i:523;}i:51;a:3:{i:0;s:6:"p_open";i:1;a:0:{}i:2;i:523;}i:52;a:3:{i:0;s:5:"cdata";i:1;a:1:{i:0;s:19:"Avancement du wiki
";}i:2;i:539;}i:53;a:3:{i:0;s:6:"plugin";i:1;a:4:{i:0;s:6:"mantis";i:1;a:2:{i:0;s:6:"Mantis";i:1;s:7:"WikiDoc";}i:2;i:5;i:3;s:18:"{{Mantis>WikiDoc}}";}i:2;i:558;}i:54;a:3:{i:0;s:7:"p_close";i:1;a:0:{}i:2;i:576;}i:55;a:3:{i:0;s:2:"hr";i:1;a:0:{}i:2;i:576;}i:56;a:3:{i:0;s:13:"section_close";i:1;a:0:{}i:2;i:584;}i:57;a:3:{i:0;s:6:"header";i:1;a:3:{i:0;s:6:"Mantis";i:1;i:4;i:2;i:584;}i:2;i:584;}i:58;a:3:{i:0;s:12:"section_open";i:1;a:1:{i:0;i:4;}i:2;i:584;}i:59;a:3:{i:0;s:6:"p_open";i:1;a:0:{}i:2;i:584;}i:60;a:3:{i:0;s:5:"cdata";i:1;a:1:{i:0;s:50:"Développement à faire sur le mantis du site web
";}i:2;i:599;}i:61;a:3:{i:0;s:6:"plugin";i:1;a:4:{i:0;s:6:"mantis";i:1;a:2:{i:0;s:6:"Mantis";i:1;s:6:"Mantis";}i:2;i:5;i:3;s:17:"{{Mantis>Mantis}}";}i:2;i:649;}i:62;a:3:{i:0;s:7:"p_close";i:1;a:0:{}i:2;i:666;}i:63;a:3:{i:0;s:2:"hr";i:1;a:0:{}i:2;i:666;}i:64;a:3:{i:0;s:13:"section_close";i:1;a:0:{}i:2;i:672;}i:65;a:3:{i:0;s:12:"document_end";i:1;a:0:{}i:2;i:672;}}