a:18:{i:0;a:3:{i:0;s:14:"document_start";i:1;a:0:{}i:2;i:0;}i:1;a:3:{i:0;s:6:"header";i:1;a:3:{i:0;s:8:"DokuWiki";i:1;i:1;i:2;i:1;}i:2;i:1;}i:2;a:3:{i:0;s:12:"section_open";i:1;a:1:{i:0;i:1;}i:2;i:1;}i:3;a:3:{i:0;s:6:"p_open";i:1;a:0:{}i:2;i:1;}i:4;a:3:{i:0;s:12:"externallink";i:1;a:2:{i:0;s:43:"http://www.splitbrain.org/projects/dokuwiki";i:1;s:16:"Site du createur";}i:2;i:25;}i:5;a:3:{i:0;s:5:"cdata";i:1;a:1:{i:0;s:1:"
";}i:2;i:89;}i:6;a:3:{i:0;s:12:"externallink";i:1;a:2:{i:0;s:33:"https://www.dokuwiki.org/dokuwiki";i:1;s:13:"Documentation";}i:2;i:90;}i:7;a:3:{i:0;s:5:"cdata";i:1;a:1:{i:0;s:1:"
";}i:2;i:141;}i:8;a:3:{i:0;s:12:"externallink";i:1;a:2:{i:0;s:39:"https://www.dokuwiki.org/fr:wiki:syntax";i:1;s:7:"Syntaxe";}i:2;i:142;}i:9;a:3:{i:0;s:7:"p_close";i:1;a:0:{}i:2;i:193;}i:10;a:3:{i:0;s:13:"section_close";i:1;a:0:{}i:2;i:197;}i:11;a:3:{i:0;s:6:"header";i:1;a:3:{i:0;s:7:"Balises";i:1;i:2;i:2;i:197;}i:2;i:197;}i:12;a:3:{i:0;s:12:"section_open";i:1;a:1:{i:0;i:2;}i:2;i:197;}i:13;a:3:{i:0;s:6:"p_open";i:1;a:0:{}i:2;i:197;}i:14;a:3:{i:0;s:11:"unformatted";i:1;a:1:{i:0;s:29:"
<html> <code java> <nowiki>
";}i:2;i:225;}i:15;a:3:{i:0;s:7:"p_close";i:1;a:0:{}i:2;i:263;}i:16;a:3:{i:0;s:13:"section_close";i:1;a:0:{}i:2;i:264;}i:17;a:3:{i:0;s:12:"document_end";i:1;a:0:{}i:2;i:264;}}