a:6:{i:0;a:3:{i:0;s:14:"document_start";i:1;a:0:{}i:2;i:0;}i:1;a:3:{i:0;s:6:"p_open";i:1;a:0:{}i:2;i:0;}i:2;a:3:{i:0;s:4:"html";i:1;a:1:{i:0;s:523:"
<object width="480" height="780">
  <param name="movie" value="http://www.parleys.com/dist/share/parleysshare.swf"/>
  <param name="allowFullScreen" value="true"/>
  <param name="wmode" value="direct"/>
  <param name="bgcolor" value="#222222"/>
  <param name="flashVars" value="sv=true&amp;pageId=3345"/>
  <embed src="http://www.parleys.com/dist/share/parleysshare.swf" type="application/x-shockwave-flash" flashVars="sv=true&amp;pageId=3345" allowfullscreen="true" bgcolor="#222222" width="480" height="780"/>
</object>
";}i:2;i:7;}i:3;a:3:{i:0;s:5:"cdata";i:1;a:1:{i:0;s:0:"";}i:2;i:537;}i:4;a:3:{i:0;s:7:"p_close";i:1;a:0:{}i:2;i:537;}i:5;a:3:{i:0;s:12:"document_end";i:1;a:0:{}i:2;i:537;}}