a:124:{i:0;a:3:{i:0;s:14:"document_start";i:1;a:0:{}i:2;i:0;}i:1;a:3:{i:0;s:6:"header";i:1;a:3:{i:0;s:19:"Hello Documentation";i:1;i:1;i:2;i:1;}i:2;i:1;}i:2;a:3:{i:0;s:12:"section_open";i:1;a:1:{i:0;i:1;}i:2;i:1;}i:3;a:3:{i:0;s:6:"p_open";i:1;a:0:{}i:2;i:1;}i:4;a:3:{i:0;s:5:"cdata";i:1;a:1:{i:0;s:95:"Bienvenu sur la partie documentation de mon site web.
Ici, est stocké les données propres aux";}i:2;i:35;}i:5;a:3:{i:0;s:7:"p_close";i:1;a:0:{}i:2;i:130;}i:6;a:3:{i:0;s:10:"listu_open";i:1;a:0:{}i:2;i:130;}i:7;a:3:{i:0;s:13:"listitem_open";i:1;a:1:{i:0;i:1;}i:2;i:130;}i:8;a:3:{i:0;s:16:"listcontent_open";i:1;a:0:{}i:2;i:130;}i:9;a:3:{i:0;s:5:"cdata";i:1;a:1:{i:0;s:27:" Applications développées";}i:2;i:134;}i:10;a:3:{i:0;s:17:"listcontent_close";i:1;a:0:{}i:2;i:161;}i:11;a:3:{i:0;s:14:"listitem_close";i:1;a:0:{}i:2;i:161;}i:12;a:3:{i:0;s:13:"listitem_open";i:1;a:1:{i:0;i:1;}i:2;i:161;}i:13;a:3:{i:0;s:16:"listcontent_open";i:1;a:0:{}i:2;i:161;}i:14;a:3:{i:0;s:5:"cdata";i:1;a:1:{i:0;s:21:" Tutoriels, rappelles";}i:2;i:165;}i:15;a:3:{i:0;s:6:"entity";i:1;a:1:{i:0;s:3:"...";}i:2;i:186;}i:16;a:3:{i:0;s:17:"listcontent_close";i:1;a:0:{}i:2;i:189;}i:17;a:3:{i:0;s:14:"listitem_close";i:1;a:0:{}i:2;i:189;}i:18;a:3:{i:0;s:13:"listitem_open";i:1;a:1:{i:0;i:1;}i:2;i:189;}i:19;a:3:{i:0;s:16:"listcontent_open";i:1;a:0:{}i:2;i:189;}i:20;a:3:{i:0;s:5:"cdata";i:1;a:1:{i:0;s:19:" Informations, news";}i:2;i:193;}i:21;a:3:{i:0;s:6:"entity";i:1;a:1:{i:0;s:3:"...";}i:2;i:212;}i:22;a:3:{i:0;s:17:"listcontent_close";i:1;a:0:{}i:2;i:215;}i:23;a:3:{i:0;s:14:"listitem_close";i:1;a:0:{}i:2;i:215;}i:24;a:3:{i:0;s:11:"listu_close";i:1;a:0:{}i:2;i:215;}i:25;a:3:{i:0;s:6:"p_open";i:1;a:0:{}i:2;i:215;}i:26;a:3:{i:0;s:14:"monospace_open";i:1;a:0:{}i:2;i:216;}i:27;a:3:{i:0;s:13:"emphasis_open";i:1;a:0:{}i:2;i:218;}i:28;a:3:{i:0;s:5:"cdata";i:1;a:1:{i:0;s:23:"(Le wiki appartient à ";}i:2;i:220;}i:29;a:3:{i:0;s:12:"externallink";i:1;a:2:{i:0;s:43:"http://www.splitbrain.org/projects/dokuwiki";i:1;s:13:" Andreas Gohr";}i:2;i:243;}i:30;a:3:{i:0;s:5:"cdata";i:1;a:1:{i:0;s:1:")";}i:2;i:304;}i:31;a:3:{i:0;s:14:"emphasis_close";i:1;a:0:{}i:2;i:305;}i:32;a:3:{i:0;s:15:"monospace_close";i:1;a:0:{}i:2;i:307;}i:33;a:3:{i:0;s:7:"p_close";i:1;a:0:{}i:2;i:309;}i:34;a:3:{i:0;s:2:"hr";i:1;a:0:{}i:2;i:309;}i:35;a:3:{i:0;s:13:"section_close";i:1;a:0:{}i:2;i:372;}i:36;a:3:{i:0;s:6:"header";i:1;a:3:{i:0;s:8:"Site web";i:1;i:2;i:2;i:372;}i:2;i:372;}i:37;a:3:{i:0;s:12:"section_open";i:1;a:1:{i:0;i:2;}i:2;i:372;}i:38;a:3:{i:0;s:6:"p_open";i:1;a:0:{}i:2;i:372;}i:39;a:3:{i:0;s:12:"externallink";i:1;a:2:{i:0;s:29:"http://gamerkitapplication.be";i:1;s:9:"Portfolio";}i:2;i:393;}i:40;a:3:{i:0;s:5:"cdata";i:1;a:1:{i:0;s:1:"
";}i:2;i:436;}i:41;a:3:{i:0;s:12:"externallink";i:1;a:2:{i:0;s:56:"http://gamerkitapplication.be/mantis/bug_report_page.php";i:1;s:11:"Bug tracker";}i:2;i:437;}i:42;a:3:{i:0;s:7:"p_close";i:1;a:0:{}i:2;i:509;}i:43;a:3:{i:0;s:13:"section_close";i:1;a:0:{}i:2;i:512;}i:44;a:3:{i:0;s:6:"header";i:1;a:3:{i:0;s:6:"Severs";i:1;i:2;i:2;i:512;}i:2;i:512;}i:45;a:3:{i:0;s:12:"section_open";i:1;a:1:{i:0;i:2;}i:2;i:512;}i:46;a:3:{i:0;s:6:"p_open";i:1;a:0:{}i:2;i:512;}i:47;a:3:{i:0;s:5:"cdata";i:1;a:1:{i:0;s:19:"TS3: 178.170.111.64";}i:2;i:531;}i:48;a:3:{i:0;s:7:"p_close";i:1;a:0:{}i:2;i:551;}i:49;a:3:{i:0;s:2:"hr";i:1;a:0:{}i:2;i:551;}i:50;a:3:{i:0;s:13:"section_close";i:1;a:0:{}i:2;i:613;}i:51;a:3:{i:0;s:6:"header";i:1;a:3:{i:0;s:16:"Ma documentation";i:1;i:2;i:2;i:613;}i:2;i:613;}i:52;a:3:{i:0;s:12:"section_open";i:1;a:1:{i:0;i:2;}i:2;i:613;}i:53;a:3:{i:0;s:13:"section_close";i:1;a:0:{}i:2;i:642;}i:54;a:3:{i:0;s:6:"header";i:1;a:3:{i:0;s:22:"Logiciels et sites web";i:1;i:3;i:2;i:642;}i:2;i:642;}i:55;a:3:{i:0;s:12:"section_open";i:1;a:1:{i:0;i:3;}i:2;i:642;}i:56;a:3:{i:0;s:6:"p_open";i:1;a:0:{}i:2;i:642;}i:57;a:3:{i:0;s:12:"internallink";i:1;a:2:{i:0;s:11:"docs:mantis";i:1;s:6:"Mantis";}i:2;i:676;}i:58;a:3:{i:0;s:5:"cdata";i:1;a:1:{i:0;s:1:"
";}i:2;i:698;}i:59;a:3:{i:0;s:12:"internallink";i:1;a:2:{i:0;s:13:"docs:dokuwiki";i:1;s:8:"DokuWiki";}i:2;i:699;}i:60;a:3:{i:0;s:7:"p_close";i:1;a:0:{}i:2;i:725;}i:61;a:3:{i:0;s:13:"section_close";i:1;a:0:{}i:2;i:727;}i:62;a:3:{i:0;s:6:"header";i:1;a:3:{i:0;s:9:"Tutoriels";i:1;i:3;i:2;i:727;}i:2;i:727;}i:63;a:3:{i:0;s:12:"section_open";i:1;a:1:{i:0;i:3;}i:2;i:727;}i:64;a:3:{i:0;s:6:"p_open";i:1;a:0:{}i:2;i:727;}i:65;a:3:{i:0;s:12:"deleted_open";i:1;a:0:{}i:2;i:747;}i:66;a:3:{i:0;s:12:"internallink";i:1;a:2:{i:0;s:21:"tutoriels:be_a_tester";i:1;s:11:"Be a tester";}i:2;i:752;}i:67;a:3:{i:0;s:13:"deleted_close";i:1;a:0:{}i:2;i:789;}i:68;a:3:{i:0;s:7:"p_close";i:1;a:0:{}i:2;i:795;}i:69;a:3:{i:0;s:13:"section_close";i:1;a:0:{}i:2;i:798;}i:70;a:3:{i:0;s:6:"header";i:1;a:3:{i:0;s:11:"Video games";i:1;i:3;i:2;i:798;}i:2;i:798;}i:71;a:3:{i:0;s:12:"section_open";i:1;a:1:{i:0;i:3;}i:2;i:798;}i:72;a:3:{i:0;s:6:"p_open";i:1;a:0:{}i:2;i:798;}i:73;a:3:{i:0;s:12:"internallink";i:1;a:2:{i:0;s:20:"games:donjonDefender";i:1;s:15:"Donjon Defender";}i:2;i:821;}i:74;a:3:{i:0;s:7:"p_close";i:1;a:0:{}i:2;i:861;}i:75;a:3:{i:0;s:6:"p_open";i:1;a:0:{}i:2;i:861;}i:76;a:3:{i:0;s:12:"internallink";i:1;a:2:{i:0;s:9:"games:FTL";i:1;s:20:"FTL: Fast then light";}i:2;i:864;}i:77;a:3:{i:0;s:5:"cdata";i:1;a:1:{i:0;s:0:"";}i:2;i:898;}i:78;a:3:{i:0;s:7:"p_close";i:1;a:0:{}i:2;i:899;}i:79;a:3:{i:0;s:2:"hr";i:1;a:0:{}i:2;i:899;}i:80;a:3:{i:0;s:13:"section_close";i:1;a:0:{}i:2;i:961;}i:81;a:3:{i:0;s:6:"header";i:1;a:3:{i:0;s:13:"Programmation";i:1;i:2;i:2;i:961;}i:2;i:961;}i:82;a:3:{i:0;s:12:"section_open";i:1;a:1:{i:0;i:2;}i:2;i:961;}i:83;a:3:{i:0;s:13:"section_close";i:1;a:0:{}i:2;i:988;}i:84;a:3:{i:0;s:6:"header";i:1;a:3:{i:0;s:16:"Projects Library";i:1;i:3;i:2;i:988;}i:2;i:988;}i:85;a:3:{i:0;s:12:"section_open";i:1;a:1:{i:0;i:3;}i:2;i:988;}i:86;a:3:{i:0;s:6:"p_open";i:1;a:0:{}i:2;i:988;}i:87;a:3:{i:0;s:12:"deleted_open";i:1;a:0:{}i:2;i:1015;}i:88;a:3:{i:0;s:12:"internallink";i:1;a:2:{i:0;s:20:"developement:projets";i:1;s:25:"Projets en développement";}i:2;i:1020;}i:89;a:3:{i:0;s:13:"deleted_close";i:1;a:0:{}i:2;i:1070;}i:90;a:3:{i:0;s:5:"cdata";i:1;a:1:{i:0;s:0:"";}i:2;i:1076;}i:91;a:3:{i:0;s:7:"p_close";i:1;a:0:{}i:2;i:1077;}i:92;a:3:{i:0;s:13:"section_close";i:1;a:0:{}i:2;i:1077;}i:93;a:3:{i:0;s:6:"header";i:1;a:3:{i:0;s:13:"Codes Library";i:1;i:3;i:2;i:1077;}i:2;i:1077;}i:94;a:3:{i:0;s:12:"section_open";i:1;a:1:{i:0;i:3;}i:2;i:1077;}i:95;a:3:{i:0;s:6:"p_open";i:1;a:0:{}i:2;i:1077;}i:96;a:3:{i:0;s:12:"internallink";i:1;a:2:{i:0;s:23:"programmation:manoeuvre";i:1;s:19:"Manoeuvre classique";}i:2;i:1101;}i:97;a:3:{i:0;s:5:"cdata";i:1;a:1:{i:0;s:0:"";}i:2;i:1148;}i:98;a:3:{i:0;s:7:"p_close";i:1;a:0:{}i:2;i:1149;}i:99;a:3:{i:0;s:13:"section_close";i:1;a:0:{}i:2;i:1149;}i:100;a:3:{i:0;s:6:"header";i:1;a:3:{i:0;s:10:"Synthèses";i:1;i:3;i:2;i:1149;}i:2;i:1149;}i:101;a:3:{i:0;s:12:"section_open";i:1;a:1:{i:0;i:3;}i:2;i:1149;}i:102;a:3:{i:0;s:6:"p_open";i:1;a:0:{}i:2;i:1149;}i:103;a:3:{i:0;s:12:"deleted_open";i:1;a:0:{}i:2;i:1170;}i:104;a:3:{i:0;s:12:"internallink";i:1;a:2:{i:0;s:18:"programmation:java";i:1;s:4:"Java";}i:2;i:1175;}i:105;a:3:{i:0;s:13:"deleted_close";i:1;a:0:{}i:2;i:1202;}i:106;a:3:{i:0;s:5:"cdata";i:1;a:1:{i:0;s:1:"
";}i:2;i:1208;}i:107;a:3:{i:0;s:12:"deleted_open";i:1;a:0:{}i:2;i:1209;}i:108;a:3:{i:0;s:12:"internallink";i:1;a:2:{i:0;s:21:"programmation:android";i:1;s:7:"Android";}i:2;i:1214;}i:109;a:3:{i:0;s:13:"deleted_close";i:1;a:0:{}i:2;i:1247;}i:110;a:3:{i:0;s:5:"cdata";i:1;a:1:{i:0;s:1:"
";}i:2;i:1253;}i:111;a:3:{i:0;s:12:"deleted_open";i:1;a:0:{}i:2;i:1254;}i:112;a:3:{i:0;s:12:"internallink";i:1;a:2:{i:0;s:17:"programmation:c++";i:1;s:3:"c++";}i:2;i:1259;}i:113;a:3:{i:0;s:13:"deleted_close";i:1;a:0:{}i:2;i:1284;}i:114;a:3:{i:0;s:7:"p_close";i:1;a:0:{}i:2;i:1290;}i:115;a:3:{i:0;s:2:"hr";i:1;a:0:{}i:2;i:1294;}i:116;a:3:{i:0;s:13:"section_close";i:1;a:0:{}i:2;i:1301;}i:117;a:3:{i:0;s:6:"header";i:1;a:3:{i:0;s:5:"Admin";i:1;i:2;i:2;i:1301;}i:2;i:1301;}i:118;a:3:{i:0;s:12:"section_open";i:1;a:1:{i:0;i:2;}i:2;i:1301;}i:119;a:3:{i:0;s:6:"p_open";i:1;a:0:{}i:2;i:1301;}i:120;a:3:{i:0;s:12:"internallink";i:1;a:2:{i:0;s:10:"admin:data";i:1;s:6:"Tavern";}i:2;i:1319;}i:121;a:3:{i:0;s:7:"p_close";i:1;a:0:{}i:2;i:1340;}i:122;a:3:{i:0;s:13:"section_close";i:1;a:0:{}i:2;i:1341;}i:123;a:3:{i:0;s:12:"document_end";i:1;a:0:{}i:2;i:1341;}}