a:44:{i:0;a:3:{i:0;s:14:"document_start";i:1;a:0:{}i:2;i:0;}i:1;a:3:{i:0;s:6:"header";i:1;a:3:{i:0;s:8:"DokuWiki";i:1;i:1;i:2;i:1;}i:2;i:1;}i:2;a:3:{i:0;s:12:"section_open";i:1;a:1:{i:0;i:1;}i:2;i:1;}i:3;a:3:{i:0;s:6:"p_open";i:1;a:0:{}i:2;i:1;}i:4;a:3:{i:0;s:12:"externallink";i:1;a:2:{i:0;s:43:"http://www.splitbrain.org/projects/dokuwiki";i:1;s:16:"Site du createur";}i:2;i:25;}i:5;a:3:{i:0;s:5:"cdata";i:1;a:1:{i:0;s:1:"
";}i:2;i:89;}i:6;a:3:{i:0;s:12:"externallink";i:1;a:2:{i:0;s:33:"https://www.dokuwiki.org/dokuwiki";i:1;s:13:"Documentation";}i:2;i:90;}i:7;a:3:{i:0;s:5:"cdata";i:1;a:1:{i:0;s:1:"
";}i:2;i:141;}i:8;a:3:{i:0;s:12:"externallink";i:1;a:2:{i:0;s:39:"https://www.dokuwiki.org/fr:wiki:syntax";i:1;s:7:"Syntaxe";}i:2;i:142;}i:9;a:3:{i:0;s:7:"p_close";i:1;a:0:{}i:2;i:193;}i:10;a:3:{i:0;s:13:"section_close";i:1;a:0:{}i:2;i:197;}i:11;a:3:{i:0;s:6:"header";i:1;a:3:{i:0;s:7:"Balises";i:1;i:2;i:2;i:197;}i:2;i:197;}i:12;a:3:{i:0;s:12:"section_open";i:1;a:1:{i:0;i:2;}i:2;i:197;}i:13;a:3:{i:0;s:6:"p_open";i:1;a:0:{}i:2;i:197;}i:14;a:3:{i:0;s:11:"unformatted";i:1;a:1:{i:0;s:29:"
<html> <code java> <nowiki>
";}i:2;i:225;}i:15;a:3:{i:0;s:5:"cdata";i:1;a:1:{i:0;s:0:"";}i:2;i:263;}i:16;a:3:{i:0;s:7:"p_close";i:1;a:0:{}i:2;i:264;}i:17;a:3:{i:0;s:13:"section_close";i:1;a:0:{}i:2;i:264;}i:18;a:3:{i:0;s:6:"header";i:1;a:3:{i:0;s:18:"Retour à la ligne";i:1;i:2;i:2;i:264;}i:2;i:264;}i:19;a:3:{i:0;s:12:"section_open";i:1;a:1:{i:0;i:2;}i:2;i:264;}i:20;a:3:{i:0;s:6:"p_open";i:1;a:0:{}i:2;i:264;}i:21;a:3:{i:0;s:5:"cdata";i:1;a:1:{i:0;s:76:"Pour le retour à la ligne, il faut laisser une ligne vide entre deux textes";}i:2;i:294;}i:22;a:3:{i:0;s:7:"p_close";i:1;a:0:{}i:2;i:370;}i:23;a:3:{i:0;s:6:"p_open";i:1;a:0:{}i:2;i:370;}i:24;a:3:{i:0;s:11:"strong_open";i:1;a:0:{}i:2;i:372;}i:25;a:3:{i:0;s:5:"cdata";i:1;a:1:{i:0;s:14:"Passer de ça ";}i:2;i:374;}i:26;a:3:{i:0;s:12:"strong_close";i:1;a:0:{}i:2;i:388;}i:27;a:3:{i:0;s:7:"p_close";i:1;a:0:{}i:2;i:390;}i:28;a:3:{i:0;s:6:"p_open";i:1;a:0:{}i:2;i:390;}i:29;a:3:{i:0;s:5:"cdata";i:1;a:1:{i:0;s:14:"Text 1 
Text 2";}i:2;i:393;}i:30;a:3:{i:0;s:7:"p_close";i:1;a:0:{}i:2;i:407;}i:31;a:3:{i:0;s:6:"p_open";i:1;a:0:{}i:2;i:407;}i:32;a:3:{i:0;s:11:"strong_open";i:1;a:0:{}i:2;i:409;}i:33;a:3:{i:0;s:5:"cdata";i:1;a:1:{i:0;s:7:"à cela";}i:2;i:411;}i:34;a:3:{i:0;s:12:"strong_close";i:1;a:0:{}i:2;i:418;}i:35;a:3:{i:0;s:7:"p_close";i:1;a:0:{}i:2;i:420;}i:36;a:3:{i:0;s:6:"p_open";i:1;a:0:{}i:2;i:420;}i:37;a:3:{i:0;s:5:"cdata";i:1;a:1:{i:0;s:7:"Text 1 ";}i:2;i:422;}i:38;a:3:{i:0;s:7:"p_close";i:1;a:0:{}i:2;i:429;}i:39;a:3:{i:0;s:6:"p_open";i:1;a:0:{}i:2;i:429;}i:40;a:3:{i:0;s:5:"cdata";i:1;a:1:{i:0;s:6:"Text 2";}i:2;i:431;}i:41;a:3:{i:0;s:7:"p_close";i:1;a:0:{}i:2;i:437;}i:42;a:3:{i:0;s:13:"section_close";i:1;a:0:{}i:2;i:438;}i:43;a:3:{i:0;s:12:"document_end";i:1;a:0:{}i:2;i:438;}}