a:425:{i:0;a:3:{i:0;s:14:"document_start";i:1;a:0:{}i:2;i:0;}i:1;a:3:{i:0;s:6:"header";i:1;a:3:{i:0;s:75:"Procédure d'installation de Mantis, DokuWiki, leurs plug-in et BlackMantis";i:1;i:1;i:2;i:1;}i:2;i:1;}i:2;a:3:{i:0;s:12:"section_open";i:1;a:1:{i:0;i:1;}i:2;i:1;}i:3;a:3:{i:0;s:6:"p_open";i:1;a:0:{}i:2;i:1;}i:4;a:3:{i:0;s:5:"cdata";i:1;a:1:{i:0;s:157:"BlackMantis est un logiciel Java que je veux développer qui permet de manager et d'exporter la documentation sur les bugs d'un jeu vidéo en développement.";}i:2;i:92;}i:5;a:3:{i:0;s:7:"p_close";i:1;a:0:{}i:2;i:249;}i:6;a:3:{i:0;s:13:"section_close";i:1;a:0:{}i:2;i:252;}i:7;a:3:{i:0;s:6:"header";i:1;a:3:{i:0;s:12:"Préparation";i:1;i:2;i:2;i:252;}i:2;i:252;}i:8;a:3:{i:0;s:12:"section_open";i:1;a:1:{i:0;i:2;}i:2;i:252;}i:9;a:3:{i:0;s:13:"section_close";i:1;a:0:{}i:2;i:276;}i:10;a:3:{i:0;s:6:"header";i:1;a:3:{i:0;s:12:"Connaissance";i:1;i:3;i:2;i:276;}i:2;i:276;}i:11;a:3:{i:0;s:12:"section_open";i:1;a:1:{i:0;i:3;}i:2;i:276;}i:12;a:3:{i:0;s:6:"p_open";i:1;a:0:{}i:2;i:276;}i:13;a:3:{i:0;s:5:"cdata";i:1;a:1:{i:0;s:23:"Langage: XHMTL, HTML5; ";}i:2;i:299;}i:14;a:3:{i:0;s:7:"acronym";i:1;a:1:{i:0;s:3:"CSS";}i:2;i:322;}i:15;a:3:{i:0;s:5:"cdata";i:1;a:1:{i:0;s:6:" 2-3; ";}i:2;i:325;}i:16;a:3:{i:0;s:7:"acronym";i:1;a:1:{i:0;s:3:"PHP";}i:2;i:331;}i:17;a:3:{i:0;s:9:"linebreak";i:1;a:0:{}i:2;i:334;}i:18;a:3:{i:0;s:5:"cdata";i:1;a:1:{i:0;s:12:"
Programme: ";}i:2;i:336;}i:19;a:3:{i:0;s:12:"internallink";i:1;a:2:{i:0;s:11:"docs:mantis";i:1;s:6:"Mantis";}i:2;i:348;}i:20;a:3:{i:0;s:5:"cdata";i:1;a:1:{i:0;s:2:", ";}i:2;i:370;}i:21;a:3:{i:0;s:12:"internallink";i:1;a:2:{i:0;s:13:"docs:dokuwiki";i:1;s:8:"DokuWiki";}i:2;i:372;}i:22;a:3:{i:0;s:5:"cdata";i:1;a:1:{i:0;s:34:", WAMP (Apache, MySQL+phpMyAdmin, ";}i:2;i:398;}i:23;a:3:{i:0;s:7:"acronym";i:1;a:1:{i:0;s:3:"PHP";}i:2;i:432;}i:24;a:3:{i:0;s:5:"cdata";i:1;a:1:{i:0;s:12:"), NotePad++";}i:2;i:435;}i:25;a:3:{i:0;s:9:"linebreak";i:1;a:0:{}i:2;i:447;}i:26;a:3:{i:0;s:7:"p_close";i:1;a:0:{}i:2;i:449;}i:27;a:3:{i:0;s:13:"section_close";i:1;a:0:{}i:2;i:452;}i:28;a:3:{i:0;s:6:"header";i:1;a:3:{i:0;s:12:"Ingrédiants";i:1;i:3;i:2;i:452;}i:2;i:452;}i:29;a:3:{i:0;s:12:"section_open";i:1;a:1:{i:0;i:3;}i:2;i:452;}i:30;a:3:{i:0;s:6:"p_open";i:1;a:0:{}i:2;i:452;}i:31;a:3:{i:0;s:5:"cdata";i:1;a:1:{i:0;s:50:"Background:-:pour avoir un fond commun sur chaque ";}i:2;i:475;}i:32;a:3:{i:0;s:18:"doublequoteopening";i:1;a:0:{}i:2;i:525;}i:33;a:3:{i:0;s:5:"cdata";i:1;a:1:{i:0;s:8:"logiciel";}i:2;i:526;}i:34;a:3:{i:0;s:18:"doublequoteclosing";i:1;a:0:{}i:2;i:534;}i:35;a:3:{i:0;s:9:"linebreak";i:1;a:0:{}i:2;i:535;}i:36;a:3:{i:0;s:5:"cdata";i:1;a:1:{i:0;s:100:"
Adresse email: BlackMantis42@gmail.com : email commune pour toutes les applications et inscriptions";}i:2;i:537;}i:37;a:3:{i:0;s:9:"linebreak";i:1;a:0:{}i:2;i:637;}i:38;a:3:{i:0;s:5:"cdata";i:1;a:1:{i:0;s:28:"
Nom compte: BlackMantis42 :";}i:2;i:639;}i:39;a:3:{i:0;s:9:"linebreak";i:1;a:0:{}i:2;i:667;}i:40;a:3:{i:0;s:5:"cdata";i:1;a:1:{i:0;s:22:"
Mot passe: root1111: ";}i:2;i:669;}i:41;a:3:{i:0;s:9:"linebreak";i:1;a:0:{}i:2;i:691;}i:42;a:3:{i:0;s:7:"p_close";i:1;a:0:{}i:2;i:693;}i:43;a:3:{i:0;s:13:"section_close";i:1;a:0:{}i:2;i:696;}i:44;a:3:{i:0;s:6:"header";i:1;a:3:{i:0;s:18:"Steps to reproduce";i:1;i:2;i:2;i:696;}i:2;i:696;}i:45;a:3:{i:0;s:12:"section_open";i:1;a:1:{i:0;i:2;}i:2;i:696;}i:46;a:3:{i:0;s:13:"section_close";i:1;a:0:{}i:2;i:728;}i:47;a:3:{i:0;s:6:"header";i:1;a:3:{i:0;s:14:"A. Identifiant";i:1;i:3;i:2;i:728;}i:2;i:728;}i:48;a:3:{i:0;s:12:"section_open";i:1;a:1:{i:0;i:3;}i:2;i:728;}i:49;a:3:{i:0;s:10:"listo_open";i:1;a:0:{}i:2;i:752;}i:50;a:3:{i:0;s:13:"listitem_open";i:1;a:1:{i:0;i:1;}i:2;i:752;}i:51;a:3:{i:0;s:16:"listcontent_open";i:1;a:0:{}i:2;i:752;}i:52;a:3:{i:0;s:5:"cdata";i:1;a:1:{i:0;s:82:" Si vous n'avez pas d'identifiant pour votre groupe, créer en vous un sur Google.";}i:2;i:756;}i:53;a:3:{i:0;s:17:"listcontent_close";i:1;a:0:{}i:2;i:838;}i:54;a:3:{i:0;s:14:"listitem_close";i:1;a:0:{}i:2;i:838;}i:55;a:3:{i:0;s:11:"listo_close";i:1;a:0:{}i:2;i:838;}i:56;a:3:{i:0;s:6:"p_open";i:1;a:0:{}i:2;i:838;}i:57;a:3:{i:0;s:5:"cdata";i:1;a:1:{i:0;s:34:"Nom compte:BlackMantis42@gmail.com";}i:2;i:839;}i:58;a:3:{i:0;s:9:"linebreak";i:1;a:0:{}i:2;i:873;}i:59;a:3:{i:0;s:5:"cdata";i:1;a:1:{i:0;s:20:"
Mot passe: root1111";}i:2;i:875;}i:60;a:3:{i:0;s:9:"linebreak";i:1;a:0:{}i:2;i:895;}i:61;a:3:{i:0;s:5:"cdata";i:1;a:1:{i:0;s:0:"";}i:2;i:897;}i:62;a:3:{i:0;s:7:"p_close";i:1;a:0:{}i:2;i:898;}i:63;a:3:{i:0;s:13:"section_close";i:1;a:0:{}i:2;i:898;}i:64;a:3:{i:0;s:6:"header";i:1;a:3:{i:0;s:23:"B. Dossier and download";i:1;i:3;i:2;i:898;}i:2;i:898;}i:65;a:3:{i:0;s:12:"section_open";i:1;a:1:{i:0;i:3;}i:2;i:898;}i:66;a:3:{i:0;s:10:"listo_open";i:1;a:0:{}i:2;i:931;}i:67;a:3:{i:0;s:13:"listitem_open";i:1;a:1:{i:0;i:1;}i:2;i:931;}i:68;a:3:{i:0;s:16:"listcontent_open";i:1;a:0:{}i:2;i:931;}i:69;a:3:{i:0;s:5:"cdata";i:1;a:1:{i:0;s:32:" Créer un dossier ForTheInstall";}i:2;i:935;}i:70;a:3:{i:0;s:17:"listcontent_close";i:1;a:0:{}i:2;i:967;}i:71;a:3:{i:0;s:14:"listitem_close";i:1;a:0:{}i:2;i:967;}i:72;a:3:{i:0;s:13:"listitem_open";i:1;a:1:{i:0;i:1;}i:2;i:967;}i:73;a:3:{i:0;s:16:"listcontent_open";i:1;a:0:{}i:2;i:967;}i:74;a:3:{i:0;s:5:"cdata";i:1;a:1:{i:0;s:20:" Téléchargez s'y: ";}i:2;i:971;}i:75;a:3:{i:0;s:12:"externallink";i:1;a:2:{i:0;s:26:"http://www.wampserver.com/";i:1;s:4:"WAMP";}i:2;i:991;}i:76;a:3:{i:0;s:5:"cdata";i:1;a:1:{i:0;s:2:", ";}i:2;i:1026;}i:77;a:3:{i:0;s:12:"externallink";i:1;a:2:{i:0;s:36:"http://www.mantisbt.org/download.php";i:1;s:6:"Mantis";}i:2;i:1028;}i:78;a:3:{i:0;s:5:"cdata";i:1;a:1:{i:0;s:2:", ";}i:2;i:1075;}i:79;a:3:{i:0;s:12:"externallink";i:1;a:2:{i:0;s:43:"http://www.splitbrain.org/projects/dokuwiki";i:1;s:8:"DokuWiki";}i:2;i:1077;}i:80;a:3:{i:0;s:5:"cdata";i:1;a:1:{i:0;s:3:", (";}i:2;i:1133;}i:81;a:3:{i:0;s:12:"externallink";i:1;a:2:{i:0;s:56:"http://www.mantisbt.org/forums/viewtopic.php?f=4&t=20126";i:1;s:16:"un thème Mantis";}i:2;i:1136;}i:82;a:3:{i:0;s:5:"cdata";i:1;a:1:{i:0;s:1:")";}i:2;i:1213;}i:83;a:3:{i:0;s:17:"listcontent_close";i:1;a:0:{}i:2;i:1214;}i:84;a:3:{i:0;s:14:"listitem_close";i:1;a:0:{}i:2;i:1214;}i:85;a:3:{i:0;s:13:"listitem_open";i:1;a:1:{i:0;i:1;}i:2;i:1214;}i:86;a:3:{i:0;s:16:"listcontent_open";i:1;a:0:{}i:2;i:1214;}i:87;a:3:{i:0;s:5:"cdata";i:1;a:1:{i:0;s:78:" Créer un dossier www pendant que vous téléchargez les modules nécessaires";}i:2;i:1218;}i:88;a:3:{i:0;s:17:"listcontent_close";i:1;a:0:{}i:2;i:1296;}i:89;a:3:{i:0;s:14:"listitem_close";i:1;a:0:{}i:2;i:1296;}i:90;a:3:{i:0;s:11:"listo_close";i:1;a:0:{}i:2;i:1296;}i:91;a:3:{i:0;s:13:"section_close";i:1;a:0:{}i:2;i:1298;}i:92;a:3:{i:0;s:6:"header";i:1;a:3:{i:0;s:7:"C. WAMP";i:1;i:3;i:2;i:1298;}i:2;i:1298;}i:93;a:3:{i:0;s:12:"section_open";i:1;a:1:{i:0;i:3;}i:2;i:1298;}i:94;a:3:{i:0;s:6:"p_open";i:1;a:0:{}i:2;i:1298;}i:95;a:3:{i:0;s:5:"cdata";i:1;a:1:{i:0;s:23:"Installation classique.";}i:2;i:1317;}i:96;a:3:{i:0;s:7:"p_close";i:1;a:0:{}i:2;i:1340;}i:97;a:3:{i:0;s:6:"p_open";i:1;a:0:{}i:2;i:1340;}i:98;a:3:{i:0;s:13:"emphasis_open";i:1;a:0:{}i:2;i:1342;}i:99;a:3:{i:0;s:5:"cdata";i:1;a:1:{i:0;s:124:"Personnellement je l'installe sur mon répertoire Dropbox ce qui me permet de travailler sur mon pseudo site de où je veux.";}i:2;i:1344;}i:100;a:3:{i:0;s:14:"emphasis_close";i:1;a:0:{}i:2;i:1468;}i:101;a:3:{i:0;s:7:"p_close";i:1;a:0:{}i:2;i:1470;}i:102;a:3:{i:0;s:6:"p_open";i:1;a:0:{}i:2;i:1470;}i:103;a:3:{i:0;s:11:"strong_open";i:1;a:0:{}i:2;i:1473;}i:104;a:3:{i:0;s:5:"cdata";i:1;a:1:{i:0;s:7:"Astuce:";}i:2;i:1475;}i:105;a:3:{i:0;s:12:"strong_close";i:1;a:0:{}i:2;i:1482;}i:106;a:3:{i:0;s:9:"linebreak";i:1;a:0:{}i:2;i:1484;}i:107;a:3:{i:0;s:5:"cdata";i:1;a:1:{i:0;s:142:"
Si votre serveur WAMP est installer et qu'il ne veut pas tourner. Regarder si skype ou une autre application n'utilise pas le même port: 80.";}i:2;i:1486;}i:108;a:3:{i:0;s:9:"linebreak";i:1;a:0:{}i:2;i:1628;}i:109;a:3:{i:0;s:5:"cdata";i:1;a:1:{i:0;s:1:"
";}i:2;i:1630;}i:110;a:3:{i:0;s:13:"emphasis_open";i:1;a:0:{}i:2;i:1631;}i:111;a:3:{i:0;s:11:"strong_open";i:1;a:0:{}i:2;i:1633;}i:112;a:3:{i:0;s:5:"cdata";i:1;a:1:{i:0;s:28:"Résolution de la collision:";}i:2;i:1635;}i:113;a:3:{i:0;s:12:"strong_close";i:1;a:0:{}i:2;i:1663;}i:114;a:3:{i:0;s:14:"emphasis_close";i:1;a:0:{}i:2;i:1665;}i:115;a:3:{i:0;s:9:"linebreak";i:1;a:0:{}i:2;i:1667;}i:116;a:3:{i:0;s:5:"cdata";i:1;a:1:{i:0;s:16:"
1. Launch skype";}i:2;i:1669;}i:117;a:3:{i:0;s:9:"linebreak";i:1;a:0:{}i:2;i:1685;}i:118;a:3:{i:0;s:5:"cdata";i:1;a:1:{i:0;s:53:"
2. Outils > Option > Avancés > Connexion > unCheck ";}i:2;i:1687;}i:119;a:3:{i:0;s:18:"doublequoteopening";i:1;a:0:{}i:2;i:1740;}i:120;a:3:{i:0;s:5:"cdata";i:1;a:1:{i:0;s:23:"Use the ports 80 et 443";}i:2;i:1741;}i:121;a:3:{i:0;s:18:"doublequoteclosing";i:1;a:0:{}i:2;i:1764;}i:122;a:3:{i:0;s:5:"cdata";i:1;a:1:{i:0;s:1:".";}i:2;i:1765;}i:123;a:3:{i:0;s:9:"linebreak";i:1;a:0:{}i:2;i:1766;}i:124;a:3:{i:0;s:5:"cdata";i:1;a:1:{i:0;s:17:"
3. Restart skype";}i:2;i:1768;}i:125;a:3:{i:0;s:9:"linebreak";i:1;a:0:{}i:2;i:1785;}i:126;a:3:{i:0;s:5:"cdata";i:1;a:1:{i:0;s:16:"
4. Restart WAMP";}i:2;i:1787;}i:127;a:3:{i:0;s:9:"linebreak";i:1;a:0:{}i:2;i:1803;}i:128;a:3:{i:0;s:5:"cdata";i:1;a:1:{i:0;s:48:"
5. Notice that now WAMP and SKYPE can run both.";}i:2;i:1805;}i:129;a:3:{i:0;s:9:"linebreak";i:1;a:0:{}i:2;i:1853;}i:130;a:3:{i:0;s:7:"p_close";i:1;a:0:{}i:2;i:1855;}i:131;a:3:{i:0;s:13:"section_close";i:1;a:0:{}i:2;i:1857;}i:132;a:3:{i:0;s:6:"header";i:1;a:3:{i:0;s:11:"D. Skelette";i:1;i:3;i:2;i:1857;}i:2;i:1857;}i:133;a:3:{i:0;s:12:"section_open";i:1;a:1:{i:0;i:3;}i:2;i:1857;}i:134;a:3:{i:0;s:6:"p_open";i:1;a:0:{}i:2;i:1857;}i:135;a:3:{i:0;s:5:"cdata";i:1;a:1:{i:0;s:23:"Proposition de skelette";}i:2;i:1880;}i:136;a:3:{i:0;s:7:"p_close";i:1;a:0:{}i:2;i:1903;}i:137;a:3:{i:0;s:10:"quote_open";i:1;a:0:{}i:2;i:1903;}i:138;a:3:{i:0;s:5:"cdata";i:1;a:1:{i:0;s:16:"Service/Mantis/ ";}i:2;i:1905;}i:139;a:3:{i:0;s:6:"entity";i:1;a:1:{i:0;s:2:"=>";}i:2;i:1921;}i:140;a:3:{i:0;s:5:"cdata";i:1;a:1:{i:0;s:23:" Installation de mantis";}i:2;i:1923;}i:141;a:3:{i:0;s:9:"linebreak";i:1;a:0:{}i:2;i:1946;}i:142;a:3:{i:0;s:5:"cdata";i:1;a:1:{i:0;s:14:"Service/Doku/ ";}i:2;i:1948;}i:143;a:3:{i:0;s:6:"entity";i:1;a:1:{i:0;s:2:"=>";}i:2;i:1962;}i:144;a:3:{i:0;s:5:"cdata";i:1;a:1:{i:0;s:24:"Installation de DokuWiki";}i:2;i:1964;}i:145;a:3:{i:0;s:9:"linebreak";i:1;a:0:{}i:2;i:1988;}i:146;a:3:{i:0;s:5:"cdata";i:1;a:1:{i:0;s:18:"Style/Main/Images ";}i:2;i:1990;}i:147;a:3:{i:0;s:6:"entity";i:1;a:1:{i:0;s:2:"=>";}i:2;i:2008;}i:148;a:3:{i:0;s:5:"cdata";i:1;a:1:{i:0;s:37:" Images pour le style css par défaut";}i:2;i:2010;}i:149;a:3:{i:0;s:9:"linebreak";i:1;a:0:{}i:2;i:2047;}i:150;a:3:{i:0;s:5:"cdata";i:1;a:1:{i:0;s:11:"Style/Main/";}i:2;i:2049;}i:151;a:3:{i:0;s:7:"acronym";i:1;a:1:{i:0;s:3:"CSS";}i:2;i:2060;}i:152;a:3:{i:0;s:5:"cdata";i:1;a:1:{i:0;s:1:" ";}i:2;i:2063;}i:153;a:3:{i:0;s:6:"entity";i:1;a:1:{i:0;s:2:"=>";}i:2;i:2064;}i:154;a:3:{i:0;s:5:"cdata";i:1;a:1:{i:0;s:31:" Pages de style css par défaut";}i:2;i:2066;}i:155;a:3:{i:0;s:9:"linebreak";i:1;a:0:{}i:2;i:2097;}i:156;a:3:{i:0;s:5:"cdata";i:1;a:1:{i:0;s:20:"Style/Mantis/Images ";}i:2;i:2099;}i:157;a:3:{i:0;s:6:"entity";i:1;a:1:{i:0;s:2:"=>";}i:2;i:2119;}i:158;a:3:{i:0;s:5:"cdata";i:1;a:1:{i:0;s:35:" Images pour le style css de Mantis";}i:2;i:2121;}i:159;a:3:{i:0;s:9:"linebreak";i:1;a:0:{}i:2;i:2156;}i:160;a:3:{i:0;s:5:"cdata";i:1;a:1:{i:0;s:13:"Style/Mantis/";}i:2;i:2158;}i:161;a:3:{i:0;s:7:"acronym";i:1;a:1:{i:0;s:3:"CSS";}i:2;i:2171;}i:162;a:3:{i:0;s:5:"cdata";i:1;a:1:{i:0;s:1:" ";}i:2;i:2174;}i:163;a:3:{i:0;s:6:"entity";i:1;a:1:{i:0;s:2:"=>";}i:2;i:2175;}i:164;a:3:{i:0;s:5:"cdata";i:1;a:1:{i:0;s:29:" Pages de style css de Mantis";}i:2;i:2177;}i:165;a:3:{i:0;s:9:"linebreak";i:1;a:0:{}i:2;i:2206;}i:166;a:3:{i:0;s:5:"cdata";i:1;a:1:{i:0;s:18:"Style/Doku/Images ";}i:2;i:2208;}i:167;a:3:{i:0;s:6:"entity";i:1;a:1:{i:0;s:2:"=>";}i:2;i:2226;}i:168;a:3:{i:0;s:5:"cdata";i:1;a:1:{i:0;s:33:" Images pour le style css de Doku";}i:2;i:2228;}i:169;a:3:{i:0;s:9:"linebreak";i:1;a:0:{}i:2;i:2261;}i:170;a:3:{i:0;s:5:"cdata";i:1;a:1:{i:0;s:11:"Style/Doku/";}i:2;i:2263;}i:171;a:3:{i:0;s:7:"acronym";i:1;a:1:{i:0;s:3:"CSS";}i:2;i:2274;}i:172;a:3:{i:0;s:5:"cdata";i:1;a:1:{i:0;s:1:" ";}i:2;i:2277;}i:173;a:3:{i:0;s:6:"entity";i:1;a:1:{i:0;s:2:"=>";}i:2;i:2278;}i:174;a:3:{i:0;s:5:"cdata";i:1;a:1:{i:0;s:27:" Pages de style css de Doky";}i:2;i:2280;}i:175;a:3:{i:0;s:11:"quote_close";i:1;a:0:{}i:2;i:2307;}i:176;a:3:{i:0;s:13:"section_close";i:1;a:0:{}i:2;i:2309;}i:177;a:3:{i:0;s:6:"header";i:1;a:3:{i:0;s:9:"E. Mantis";i:1;i:3;i:2;i:2309;}i:2;i:2309;}i:178;a:3:{i:0;s:12:"section_open";i:1;a:1:{i:0;i:3;}i:2;i:2309;}i:179;a:3:{i:0;s:6:"p_open";i:1;a:0:{}i:2;i:2309;}i:180;a:3:{i:0;s:5:"cdata";i:1;a:1:{i:0;s:10:"Download: ";}i:2;i:2329;}i:181;a:3:{i:0;s:12:"externallink";i:1;a:2:{i:0;s:36:"http://www.mantisbt.org/download.php";i:1;s:1:"1";}i:2;i:2339;}i:182;a:3:{i:0;s:5:"cdata";i:1;a:1:{i:0;s:0:"";}i:2;i:2381;}i:183;a:3:{i:0;s:7:"p_close";i:1;a:0:{}i:2;i:2382;}i:184;a:3:{i:0;s:13:"section_close";i:1;a:0:{}i:2;i:2382;}i:185;a:3:{i:0;s:6:"header";i:1;a:3:{i:0;s:7:"Install";i:1;i:4;i:2;i:2382;}i:2;i:2382;}i:186;a:3:{i:0;s:12:"section_open";i:1;a:1:{i:0;i:4;}i:2;i:2382;}i:187;a:3:{i:0;s:10:"listo_open";i:1;a:0:{}i:2;i:2398;}i:188;a:3:{i:0;s:13:"listitem_open";i:1;a:1:{i:0;i:1;}i:2;i:2398;}i:189;a:3:{i:0;s:16:"listcontent_open";i:1;a:0:{}i:2;i:2398;}i:190;a:3:{i:0;s:5:"cdata";i:1;a:1:{i:0;s:62:" UnZip la dernier version stable de Mantis dans Service/Mantis";}i:2;i:2402;}i:191;a:3:{i:0;s:17:"listcontent_close";i:1;a:0:{}i:2;i:2464;}i:192;a:3:{i:0;s:14:"listitem_close";i:1;a:0:{}i:2;i:2464;}i:193;a:3:{i:0;s:13:"listitem_open";i:1;a:1:{i:0;i:1;}i:2;i:2464;}i:194;a:3:{i:0;s:16:"listcontent_open";i:1;a:0:{}i:2;i:2464;}i:195;a:3:{i:0;s:5:"cdata";i:1;a:1:{i:0;s:7:" Go to ";}i:2;i:2468;}i:196;a:3:{i:0;s:12:"externallink";i:1;a:2:{i:0;s:49:"http://localhost/Service/Mantis/admin/install.php";i:1;s:49:"http://localhost/Service/Mantis/admin/install.php";}i:2;i:2475;}i:197;a:3:{i:0;s:17:"listcontent_close";i:1;a:0:{}i:2;i:2578;}i:198;a:3:{i:0;s:14:"listitem_close";i:1;a:0:{}i:2;i:2578;}i:199;a:3:{i:0;s:13:"listitem_open";i:1;a:1:{i:0;i:1;}i:2;i:2578;}i:200;a:3:{i:0;s:16:"listcontent_open";i:1;a:0:{}i:2;i:2578;}i:201;a:3:{i:0;s:5:"cdata";i:1;a:1:{i:0;s:27:" BD: MySQL - Host:localhost";}i:2;i:2582;}i:202;a:3:{i:0;s:17:"listcontent_close";i:1;a:0:{}i:2;i:2609;}i:203;a:3:{i:0;s:14:"listitem_close";i:1;a:0:{}i:2;i:2609;}i:204;a:3:{i:0;s:13:"listitem_open";i:1;a:1:{i:0;i:1;}i:2;i:2609;}i:205;a:3:{i:0;s:16:"listcontent_open";i:1;a:0:{}i:2;i:2609;}i:206;a:3:{i:0;s:5:"cdata";i:1;a:1:{i:0;s:45:" Par défaut, WAMP installer MySQL avec user:";}i:2;i:2613;}i:207;a:3:{i:0;s:18:"doublequoteopening";i:1;a:0:{}i:2;i:2658;}i:208;a:3:{i:0;s:5:"cdata";i:1;a:1:{i:0;s:4:"root";}i:2;i:2659;}i:209;a:3:{i:0;s:18:"doublequoteclosing";i:1;a:0:{}i:2;i:2663;}i:210;a:3:{i:0;s:5:"cdata";i:1;a:1:{i:0;s:9:" et mdp: ";}i:2;i:2664;}i:211;a:3:{i:0;s:18:"doublequoteclosing";i:1;a:0:{}i:2;i:2673;}i:212;a:3:{i:0;s:5:"cdata";i:1;a:1:{i:0;s:1:"-";}i:2;i:2674;}i:213;a:3:{i:0;s:18:"doublequoteclosing";i:1;a:0:{}i:2;i:2675;}i:214;a:3:{i:0;s:17:"listcontent_close";i:1;a:0:{}i:2;i:2676;}i:215;a:3:{i:0;s:14:"listitem_close";i:1;a:0:{}i:2;i:2676;}i:216;a:3:{i:0;s:13:"listitem_open";i:1;a:1:{i:0;i:1;}i:2;i:2676;}i:217;a:3:{i:0;s:16:"listcontent_open";i:1;a:0:{}i:2;i:2676;}i:218;a:3:{i:0;s:5:"cdata";i:1;a:1:{i:0;s:7:" user: ";}i:2;i:2680;}i:219;a:3:{i:0;s:18:"doublequoteopening";i:1;a:0:{}i:2;i:2687;}i:220;a:3:{i:0;s:5:"cdata";i:1;a:1:{i:0;s:4:"root";}i:2;i:2688;}i:221;a:3:{i:0;s:18:"doublequoteclosing";i:1;a:0:{}i:2;i:2692;}i:222;a:3:{i:0;s:5:"cdata";i:1;a:1:{i:0;s:7:" - mdp:";}i:2;i:2693;}i:223;a:3:{i:0;s:18:"doublequoteclosing";i:1;a:0:{}i:2;i:2700;}i:224;a:3:{i:0;s:18:"doublequoteclosing";i:1;a:0:{}i:2;i:2701;}i:225;a:3:{i:0;s:5:"cdata";i:1;a:1:{i:0;s:2:"  ";}i:2;i:2702;}i:226;a:3:{i:0;s:6:"entity";i:1;a:1:{i:0;s:2:"=>";}i:2;i:2704;}i:227;a:3:{i:0;s:5:"cdata";i:1;a:1:{i:0;s:35:" pour installer les tables de la BD";}i:2;i:2706;}i:228;a:3:{i:0;s:17:"listcontent_close";i:1;a:0:{}i:2;i:2741;}i:229;a:3:{i:0;s:14:"listitem_close";i:1;a:0:{}i:2;i:2741;}i:230;a:3:{i:0;s:13:"listitem_open";i:1;a:1:{i:0;i:1;}i:2;i:2741;}i:231;a:3:{i:0;s:16:"listcontent_open";i:1;a:0:{}i:2;i:2741;}i:232;a:3:{i:0;s:5:"cdata";i:1;a:1:{i:0;s:7:" user: ";}i:2;i:2745;}i:233;a:3:{i:0;s:18:"doublequoteopening";i:1;a:0:{}i:2;i:2752;}i:234;a:3:{i:0;s:5:"cdata";i:1;a:1:{i:0;s:4:"root";}i:2;i:2753;}i:235;a:3:{i:0;s:18:"doublequoteclosing";i:1;a:0:{}i:2;i:2757;}i:236;a:3:{i:0;s:5:"cdata";i:1;a:1:{i:0;s:7:" - mdp:";}i:2;i:2758;}i:237;a:3:{i:0;s:18:"doublequoteclosing";i:1;a:0:{}i:2;i:2765;}i:238;a:3:{i:0;s:18:"doublequoteclosing";i:1;a:0:{}i:2;i:2766;}i:239;a:3:{i:0;s:5:"cdata";i:1;a:1:{i:0;s:1:" ";}i:2;i:2767;}i:240;a:3:{i:0;s:6:"entity";i:1;a:1:{i:0;s:2:"=>";}i:2;i:2768;}i:241;a:3:{i:0;s:5:"cdata";i:1;a:1:{i:0;s:26:" pour installer dans la BD";}i:2;i:2770;}i:242;a:3:{i:0;s:17:"listcontent_close";i:1;a:0:{}i:2;i:2796;}i:243;a:3:{i:0;s:14:"listitem_close";i:1;a:0:{}i:2;i:2796;}i:244;a:3:{i:0;s:11:"listo_close";i:1;a:0:{}i:2;i:2796;}i:245;a:3:{i:0;s:6:"p_open";i:1;a:0:{}i:2;i:2796;}i:246;a:3:{i:0;s:5:"cdata";i:1;a:1:{i:0;s:58:"Voilà Mantis est installer sur votre serveur local WAMP.
";}i:2;i:2798;}i:247;a:3:{i:0;s:13:"emphasis_open";i:1;a:0:{}i:2;i:2856;}i:248;a:3:{i:0;s:5:"cdata";i:1;a:1:{i:0;s:66:"NB: Il vaudrait mieux que vous changiez les mdp de votre BD MySQL.";}i:2;i:2858;}i:249;a:3:{i:0;s:14:"emphasis_close";i:1;a:0:{}i:2;i:2924;}i:250;a:3:{i:0;s:7:"p_close";i:1;a:0:{}i:2;i:2926;}i:251;a:3:{i:0;s:13:"section_close";i:1;a:0:{}i:2;i:2928;}i:252;a:3:{i:0;s:6:"header";i:1;a:3:{i:0;s:87:"Warning: You should disable the default 'administrator' account or change its password.";i:1;i:4;i:2;i:2928;}i:2;i:2928;}i:253;a:3:{i:0;s:12:"section_open";i:1;a:1:{i:0;i:4;}i:2;i:2928;}i:254;a:3:{i:0;s:6:"p_open";i:1;a:0:{}i:2;i:2928;}i:255;a:3:{i:0;s:5:"cdata";i:1;a:1:{i:0;s:52:"Par défaut, Mantis créer un administrateur nommé ";}i:2;i:3024;}i:256;a:3:{i:0;s:18:"doublequoteopening";i:1;a:0:{}i:2;i:3076;}i:257;a:3:{i:0;s:5:"cdata";i:1;a:1:{i:0;s:13:"administrator";}i:2;i:3077;}i:258;a:3:{i:0;s:18:"doublequoteclosing";i:1;a:0:{}i:2;i:3090;}i:259;a:3:{i:0;s:5:"cdata";i:1;a:1:{i:0;s:23:" avec les mot de passe ";}i:2;i:3091;}i:260;a:3:{i:0;s:18:"doublequoteopening";i:1;a:0:{}i:2;i:3114;}i:261;a:3:{i:0;s:5:"cdata";i:1;a:1:{i:0;s:4:"root";}i:2;i:3115;}i:262;a:3:{i:0;s:18:"doublequoteclosing";i:1;a:0:{}i:2;i:3119;}i:263;a:3:{i:0;s:5:"cdata";i:1;a:1:{i:0;s:1:".";}i:2;i:3120;}i:264;a:3:{i:0;s:7:"p_close";i:1;a:0:{}i:2;i:3121;}i:265;a:3:{i:0;s:6:"p_open";i:1;a:0:{}i:2;i:3121;}i:266;a:3:{i:0;s:5:"cdata";i:1;a:1:{i:0;s:144:"Je vous conseille de changer cela:
1. Log-in in Mantis with administrator (pwd:root)
2. MANAGE > MANAGE USERS > Select administrator
3. Complete";}i:2;i:3123;}i:267;a:3:{i:0;s:9:"linebreak";i:1;a:0:{}i:2;i:3267;}i:268;a:3:{i:0;s:5:"cdata";i:1;a:1:{i:0;s:24:"
Username: BlackMantis42";}i:2;i:3269;}i:269;a:3:{i:0;s:9:"linebreak";i:1;a:0:{}i:2;i:3293;}i:270;a:3:{i:0;s:5:"cdata";i:1;a:1:{i:0;s:23:"
Real Name: Eloi Strée";}i:2;i:3296;}i:271;a:3:{i:0;s:9:"linebreak";i:1;a:0:{}i:2;i:3319;}i:272;a:3:{i:0;s:5:"cdata";i:1;a:1:{i:0;s:32:"
E-mail: BlackMantis42@gmail.com";}i:2;i:3322;}i:273;a:3:{i:0;s:9:"linebreak";i:1;a:0:{}i:2;i:3354;}i:274;a:3:{i:0;s:5:"cdata";i:1;a:1:{i:0;s:29:"
Access Level: administrator ";}i:2;i:3356;}i:275;a:3:{i:0;s:9:"linebreak";i:1;a:0:{}i:2;i:3385;}i:276;a:3:{i:0;s:7:"p_close";i:1;a:0:{}i:2;i:3388;}i:277;a:3:{i:0;s:6:"p_open";i:1;a:0:{}i:2;i:3388;}i:278;a:3:{i:0;s:5:"cdata";i:1;a:1:{i:0;s:70:"Et voilà, vous êtes le seul administrateur de Mantis pour l'instant.";}i:2;i:3390;}i:279;a:3:{i:0;s:7:"p_close";i:1;a:0:{}i:2;i:3460;}i:280;a:3:{i:0;s:13:"section_close";i:1;a:0:{}i:2;i:3464;}i:281;a:3:{i:0;s:6:"header";i:1;a:3:{i:0;s:43:"Warning: Admin directory should be removed.";i:1;i:4;i:2;i:3464;}i:2;i:3464;}i:282;a:3:{i:0;s:12:"section_open";i:1;a:1:{i:0;i:4;}i:2;i:3464;}i:283;a:3:{i:0;s:6:"p_open";i:1;a:0:{}i:2;i:3464;}i:284;a:3:{i:0;s:5:"cdata";i:1;a:1:{i:0;s:140:"Une fois l'étape d'avoir créer son compte administrateur remplie, vous pouvez supprimer le dossier entier: \wamp\www\Service\Mantis\admin.";}i:2;i:3518;}i:285;a:3:{i:0;s:9:"linebreak";i:1;a:0:{}i:2;i:3658;}i:286;a:3:{i:0;s:5:"cdata";i:1;a:1:{i:0;s:62:"
Cela évitera des personnes de venir corrompre votre service.";}i:2;i:3660;}i:287;a:3:{i:0;s:7:"p_close";i:1;a:0:{}i:2;i:3722;}i:288;a:3:{i:0;s:13:"section_close";i:1;a:0:{}i:2;i:3726;}i:289;a:3:{i:0;s:6:"header";i:1;a:3:{i:0;s:11:"F. DokuWiki";i:1;i:3;i:2;i:3726;}i:2;i:3726;}i:290;a:3:{i:0;s:12:"section_open";i:1;a:1:{i:0;i:3;}i:2;i:3726;}i:291;a:3:{i:0;s:6:"p_open";i:1;a:0:{}i:2;i:3726;}i:292;a:3:{i:0;s:5:"cdata";i:1;a:1:{i:0;s:10:"Download: ";}i:2;i:3748;}i:293;a:3:{i:0;s:12:"externallink";i:1;a:2:{i:0;s:43:"http://www.splitbrain.org/projects/dokuwiki";i:1;s:1:"1";}i:2;i:3758;}i:294;a:3:{i:0;s:7:"p_close";i:1;a:0:{}i:2;i:3807;}i:295;a:3:{i:0;s:6:"p_open";i:1;a:0:{}i:2;i:3807;}i:296;a:3:{i:0;s:12:"externallink";i:1;a:2:{i:0;s:41:"http://localhost/Service/Doku/install.php";i:1;N;}i:2;i:3810;}i:297;a:3:{i:0;s:9:"linebreak";i:1;a:0:{}i:2;i:3851;}i:298;a:3:{i:0;s:5:"cdata";i:1;a:1:{i:0;s:13:"
Language: FR";}i:2;i:3853;}i:299;a:3:{i:0;s:9:"linebreak";i:1;a:0:{}i:2;i:3866;}i:300;a:3:{i:0;s:5:"cdata";i:1;a:1:{i:0;s:23:"
Wiki Name: BlackMantis";}i:2;i:3868;}i:301;a:3:{i:0;s:9:"linebreak";i:1;a:0:{}i:2;i:3891;}i:302;a:3:{i:0;s:5:"cdata";i:1;a:1:{i:0;s:26:"
Super User: BlackMantis42";}i:2;i:3893;}i:303;a:3:{i:0;s:9:"linebreak";i:1;a:0:{}i:2;i:3919;}i:304;a:3:{i:0;s:5:"cdata";i:1;a:1:{i:0;s:23:"
Real Name: Strée Eloi";}i:2;i:3921;}i:305;a:3:{i:0;s:9:"linebreak";i:1;a:0:{}i:2;i:3944;}i:306;a:3:{i:0;s:5:"cdata";i:1;a:1:{i:0;s:31:"
Email: BlackMantis42@gmail.com";}i:2;i:3946;}i:307;a:3:{i:0;s:9:"linebreak";i:1;a:0:{}i:2;i:3977;}i:308;a:3:{i:0;s:5:"cdata";i:1;a:1:{i:0;s:19:"
Password: root1111";}i:2;i:3979;}i:309;a:3:{i:0;s:9:"linebreak";i:1;a:0:{}i:2;i:3998;}i:310;a:3:{i:0;s:5:"cdata";i:1;a:1:{i:0;s:1:"
";}i:2;i:4000;}i:311;a:3:{i:0;s:7:"acronym";i:1;a:1:{i:0;s:3:"ACL";}i:2;i:4001;}i:312;a:3:{i:0;s:5:"cdata";i:1;a:1:{i:0;s:13:": Public wiki";}i:2;i:4004;}i:313;a:3:{i:0;s:9:"linebreak";i:1;a:0:{}i:2;i:4017;}i:314;a:3:{i:0;s:5:"cdata";i:1;a:1:{i:0;s:14:"
Licence: None";}i:2;i:4019;}i:315;a:3:{i:0;s:9:"linebreak";i:1;a:0:{}i:2;i:4033;}i:316;a:3:{i:0;s:7:"p_close";i:1;a:0:{}i:2;i:4035;}i:317;a:3:{i:0;s:6:"p_open";i:1;a:0:{}i:2;i:4035;}i:318;a:3:{i:0;s:5:"cdata";i:1;a:1:{i:0;s:30:"Voilà DokuWiki est installé.";}i:2;i:4037;}i:319;a:3:{i:0;s:7:"p_close";i:1;a:0:{}i:2;i:4067;}i:320;a:3:{i:0;s:6:"p_open";i:1;a:0:{}i:2;i:4067;}i:321;a:3:{i:0;s:5:"cdata";i:1;a:1:{i:0;s:36:"Maintenant vous pouvez changer ceci:";}i:2;i:4069;}i:322;a:3:{i:0;s:9:"linebreak";i:1;a:0:{}i:2;i:4105;}i:323;a:3:{i:0;s:7:"p_close";i:1;a:0:{}i:2;i:4107;}i:324;a:3:{i:0;s:10:"quote_open";i:1;a:0:{}i:2;i:4107;}i:325;a:3:{i:0;s:5:"cdata";i:1;a:1:{i:0;s:42:" Administer > Paramètres de configuration";}i:2;i:4109;}i:326;a:3:{i:0;s:9:"linebreak";i:1;a:0:{}i:2;i:4151;}i:327;a:3:{i:0;s:11:"quote_close";i:1;a:0:{}i:2;i:4153;}i:328;a:3:{i:0;s:6:"p_open";i:1;a:0:{}i:2;i:4153;}i:329;a:3:{i:0;s:5:"cdata";i:1;a:1:{i:0;s:22:"Interface language: FR";}i:2;i:4154;}i:330;a:3:{i:0;s:9:"linebreak";i:1;a:0:{}i:2;i:4176;}i:331;a:3:{i:0;s:5:"cdata";i:1;a:1:{i:0;s:28:"
Date format :%d/%m/%Y %H:%M";}i:2;i:4178;}i:332;a:3:{i:0;s:9:"linebreak";i:1;a:0:{}i:2;i:4206;}i:333;a:3:{i:0;s:5:"cdata";i:1;a:1:{i:0;s:16:"
Allow embedded ";}i:2;i:4208;}i:334;a:3:{i:0;s:7:"acronym";i:1;a:1:{i:0;s:4:"HTML";}i:2;i:4224;}i:335;a:3:{i:0;s:5:"cdata";i:1;a:1:{i:0;s:7:": Check";}i:2;i:4228;}i:336;a:3:{i:0;s:9:"linebreak";i:1;a:0:{}i:2;i:4235;}i:337;a:3:{i:0;s:5:"cdata";i:1;a:1:{i:0;s:0:"";}i:2;i:4237;}i:338;a:3:{i:0;s:7:"p_close";i:1;a:0:{}i:2;i:4238;}i:339;a:3:{i:0;s:13:"section_close";i:1;a:0:{}i:2;i:4238;}i:340;a:3:{i:0;s:6:"header";i:1;a:3:{i:0;s:13:"G. Customiser";i:1;i:3;i:2;i:4238;}i:2;i:4238;}i:341;a:3:{i:0;s:12:"section_open";i:1;a:1:{i:0;i:3;}i:2;i:4238;}i:342;a:3:{i:0;s:6:"p_open";i:1;a:0:{}i:2;i:4238;}i:343;a:3:{i:0;s:5:"cdata";i:1;a:1:{i:0;s:8:"Manuel: ";}i:2;i:4262;}i:344;a:3:{i:0;s:12:"externallink";i:1;a:2:{i:0;s:40:"http://www.mantisbt.org/manual/index.php";i:1;s:6:"Mantis";}i:2;i:4270;}i:345;a:3:{i:0;s:5:"cdata";i:1;a:1:{i:0;s:2:", ";}i:2;i:4321;}i:346;a:3:{i:0;s:12:"externallink";i:1;a:2:{i:0;s:34:"https://www.dokuwiki.org/fr:manual";i:1;s:8:"DokuWiki";}i:2;i:4323;}i:347;a:3:{i:0;s:9:"linebreak";i:1;a:0:{}i:2;i:4370;}i:348;a:3:{i:0;s:7:"p_close";i:1;a:0:{}i:2;i:4372;}i:349;a:3:{i:0;s:6:"p_open";i:1;a:0:{}i:2;i:4372;}i:350;a:3:{i:0;s:5:"cdata";i:1;a:1:{i:0;s:66:"Personnellement, il y a plein de petit détailles qui me dérange:";}i:2;i:4374;}i:351;a:3:{i:0;s:9:"linebreak";i:1;a:0:{}i:2;i:4440;}i:352;a:3:{i:0;s:7:"p_close";i:1;a:0:{}i:2;i:4442;}i:353;a:3:{i:0;s:10:"listo_open";i:1;a:0:{}i:2;i:4442;}i:354;a:3:{i:0;s:13:"listitem_open";i:1;a:1:{i:0;i:1;}i:2;i:4442;}i:355;a:3:{i:0;s:16:"listcontent_open";i:1;a:0:{}i:2;i:4442;}i:356;a:3:{i:0;s:5:"cdata";i:1;a:1:{i:0;s:33:" L'interface peu amical de Mantis";}i:2;i:4446;}i:357;a:3:{i:0;s:17:"listcontent_close";i:1;a:0:{}i:2;i:4479;}i:358;a:3:{i:0;s:14:"listitem_close";i:1;a:0:{}i:2;i:4479;}i:359;a:3:{i:0;s:13:"listitem_open";i:1;a:1:{i:0;i:1;}i:2;i:4479;}i:360;a:3:{i:0;s:16:"listcontent_open";i:1;a:0:{}i:2;i:4479;}i:361;a:3:{i:0;s:5:"cdata";i:1;a:1:{i:0;s:26:" L'interface blanc de Doku";}i:2;i:4483;}i:362;a:3:{i:0;s:17:"listcontent_close";i:1;a:0:{}i:2;i:4509;}i:363;a:3:{i:0;s:14:"listitem_close";i:1;a:0:{}i:2;i:4509;}i:364;a:3:{i:0;s:13:"listitem_open";i:1;a:1:{i:0;i:1;}i:2;i:4509;}i:365;a:3:{i:0;s:16:"listcontent_open";i:1;a:0:{}i:2;i:4509;}i:366;a:3:{i:0;s:5:"cdata";i:1;a:1:{i:0;s:37:" Des détailles à régler sur Mantis";}i:2;i:4513;}i:367;a:3:{i:0;s:17:"listcontent_close";i:1;a:0:{}i:2;i:4550;}i:368;a:3:{i:0;s:14:"listitem_close";i:1;a:0:{}i:2;i:4550;}i:369;a:3:{i:0;s:13:"listitem_open";i:1;a:1:{i:0;i:1;}i:2;i:4550;}i:370;a:3:{i:0;s:16:"listcontent_open";i:1;a:0:{}i:2;i:4550;}i:371;a:3:{i:0;s:5:"cdata";i:1;a:1:{i:0;s:1:" ";}i:2;i:4554;}i:372;a:3:{i:0;s:6:"entity";i:1;a:1:{i:0;s:3:"...";}i:2;i:4555;}i:373;a:3:{i:0;s:17:"listcontent_close";i:1;a:0:{}i:2;i:4558;}i:374;a:3:{i:0;s:14:"listitem_close";i:1;a:0:{}i:2;i:4558;}i:375;a:3:{i:0;s:11:"listo_close";i:1;a:0:{}i:2;i:4558;}i:376;a:3:{i:0;s:6:"p_open";i:1;a:0:{}i:2;i:4558;}i:377;a:3:{i:0;s:5:"cdata";i:1;a:1:{i:0;s:53:"Je vais donc vous montrer ce que vous pouvez y faire.";}i:2;i:4559;}i:378;a:3:{i:0;s:7:"p_close";i:1;a:0:{}i:2;i:4612;}i:379;a:3:{i:0;s:13:"section_close";i:1;a:0:{}i:2;i:4614;}i:380;a:3:{i:0;s:6:"header";i:1;a:3:{i:0;s:11:"I. Download";i:1;i:4;i:2;i:4614;}i:2;i:4614;}i:381;a:3:{i:0;s:12:"section_open";i:1;a:1:{i:0;i:4;}i:2;i:4614;}i:382;a:3:{i:0;s:6:"p_open";i:1;a:0:{}i:2;i:4614;}i:383;a:3:{i:0;s:5:"cdata";i:1;a:1:{i:0;s:10:"My files: ";}i:2;i:4634;}i:384;a:3:{i:0;s:12:"externallink";i:1;a:2:{i:0;s:77:"http://gamerkitapplication.be/documentation/lib/exe/fetch.php?media=style.zip";i:1;s:9:"style.zip";}i:2;i:4644;}i:385;a:3:{i:0;s:5:"cdata";i:1;a:1:{i:0;s:2:", ";}i:2;i:4735;}i:386;a:3:{i:0;s:12:"externallink";i:1;a:2:{i:0;s:84:"http://gamerkitapplication.be/documentation/lib/exe/fetch.php?media=mantisConfig.zip";i:1;s:16:"mantisConfig.zip";}i:2;i:4737;}i:387;a:3:{i:0;s:9:"linebreak";i:1;a:0:{}i:2;i:4842;}i:388;a:3:{i:0;s:7:"p_close";i:1;a:0:{}i:2;i:4844;}i:389;a:3:{i:0;s:6:"p_open";i:1;a:0:{}i:2;i:4844;}i:390;a:3:{i:0;s:5:"cdata";i:1;a:1:{i:0;s:43:"1. Unzip contant of style.zip in WAMP > www";}i:2;i:4846;}i:391;a:3:{i:0;s:9:"linebreak";i:1;a:0:{}i:2;i:4889;}i:392;a:3:{i:0;s:7:"p_close";i:1;a:0:{}i:2;i:4891;}i:393;a:3:{i:0;s:13:"section_close";i:1;a:0:{}i:2;i:4893;}i:394;a:3:{i:0;s:6:"header";i:1;a:3:{i:0;s:10:"II. Mantis";i:1;i:4;i:2;i:4893;}i:2;i:4893;}i:395;a:3:{i:0;s:12:"section_open";i:1;a:1:{i:0;i:4;}i:2;i:4893;}i:396;a:3:{i:0;s:6:"p_open";i:1;a:0:{}i:2;i:4893;}i:397;a:3:{i:0;s:5:"cdata";i:1;a:1:{i:0;s:69:"2. Unzip contant of mantisConfig.zip in WAMP > www > Service > Mantis";}i:2;i:4912;}i:398;a:3:{i:0;s:9:"linebreak";i:1;a:0:{}i:2;i:4981;}i:399;a:3:{i:0;s:5:"cdata";i:1;a:1:{i:0;s:11:"
3. Relace ";}i:2;i:4983;}i:400;a:3:{i:0;s:6:"entity";i:1;a:1:{i:0;s:3:"...";}i:2;i:4994;}i:401;a:3:{i:0;s:5:"cdata";i:1;a:1:{i:0;s:5:". in ";}i:2;i:4997;}i:402;a:3:{i:0;s:6:"entity";i:1;a:1:{i:0;s:3:"...";}i:2;i:5002;}i:403;a:3:{i:0;s:5:"cdata";i:1;a:1:{i:0;s:5:". by ";}i:2;i:5005;}i:404;a:3:{i:0;s:6:"entity";i:1;a:1:{i:0;s:3:"...";}i:2;i:5010;}i:405;a:3:{i:0;s:5:"cdata";i:1;a:1:{i:0;s:5:". in ";}i:2;i:5013;}i:406;a:3:{i:0;s:6:"entity";i:1;a:1:{i:0;s:3:"...";}i:2;i:5018;}i:407;a:3:{i:0;s:5:"cdata";i:1;a:1:{i:0;s:1:".";}i:2;i:5021;}i:408;a:3:{i:0;s:7:"p_close";i:1;a:0:{}i:2;i:5022;}i:409;a:3:{i:0;s:13:"section_close";i:1;a:0:{}i:2;i:5024;}i:410;a:3:{i:0;s:6:"header";i:1;a:3:{i:0;s:13:"III. DokuWiki";i:1;i:4;i:2;i:5024;}i:2;i:5024;}i:411;a:3:{i:0;s:12:"section_open";i:1;a:1:{i:0;i:4;}i:2;i:5024;}i:412;a:3:{i:0;s:6:"p_open";i:1;a:0:{}i:2;i:5024;}i:413;a:3:{i:0;s:5:"cdata";i:1;a:1:{i:0;s:10:"4. Relace ";}i:2;i:5046;}i:414;a:3:{i:0;s:6:"entity";i:1;a:1:{i:0;s:3:"...";}i:2;i:5056;}i:415;a:3:{i:0;s:5:"cdata";i:1;a:1:{i:0;s:5:". in ";}i:2;i:5059;}i:416;a:3:{i:0;s:6:"entity";i:1;a:1:{i:0;s:3:"...";}i:2;i:5064;}i:417;a:3:{i:0;s:5:"cdata";i:1;a:1:{i:0;s:5:". by ";}i:2;i:5067;}i:418;a:3:{i:0;s:6:"entity";i:1;a:1:{i:0;s:3:"...";}i:2;i:5072;}i:419;a:3:{i:0;s:5:"cdata";i:1;a:1:{i:0;s:5:". in ";}i:2;i:5075;}i:420;a:3:{i:0;s:6:"entity";i:1;a:1:{i:0;s:3:"...";}i:2;i:5080;}i:421;a:3:{i:0;s:5:"cdata";i:1;a:1:{i:0;s:1:".";}i:2;i:5083;}i:422;a:3:{i:0;s:7:"p_close";i:1;a:0:{}i:2;i:5084;}i:423;a:3:{i:0;s:13:"section_close";i:1;a:0:{}i:2;i:5089;}i:424;a:3:{i:0;s:12:"document_end";i:1;a:0:{}i:2;i:5089;}}