a:15:{i:0;a:3:{i:0;s:14:"document_start";i:1;a:0:{}i:2;i:0;}i:1;a:3:{i:0;s:6:"header";i:1;a:3:{i:0;s:28:"Fier d'être informaticien ?";i:1;i:1;i:2;i:1;}i:2;i:1;}i:2;a:3:{i:0;s:12:"section_open";i:1;a:1:{i:0;i:1;}i:2;i:1;}i:3;a:3:{i:0;s:6:"p_open";i:1;a:0:{}i:2;i:1;}i:4;a:3:{i:0;s:4:"html";i:1;a:1:{i:0;s:523:"
<object width="395" height="395">
  <param name="movie" value="http://www.parleys.com/dist/share/parleysshare.swf"/>
  <param name="allowFullScreen" value="true"/>
  <param name="wmode" value="direct"/>
  <param name="bgcolor" value="#222222"/>
  <param name="flashVars" value="sv=true&amp;pageId=3345"/>
  <embed src="http://www.parleys.com/dist/share/parleysshare.swf" type="application/x-shockwave-flash" flashVars="sv=true&amp;pageId=3345" allowfullscreen="true" bgcolor="#222222" width="395" height="395"/>
</object>
";}i:2;i:50;}i:5;a:3:{i:0;s:7:"p_close";i:1;a:0:{}i:2;i:580;}i:6;a:3:{i:0;s:13:"section_close";i:1;a:0:{}i:2;i:583;}i:7;a:3:{i:0;s:6:"header";i:1;a:3:{i:0;s:12:"Mes musiques";i:1;i:1;i:2;i:583;}i:2;i:583;}i:8;a:3:{i:0;s:12:"section_open";i:1;a:1:{i:0;i:1;}i:2;i:583;}i:9;a:3:{i:0;s:6:"p_open";i:1;a:0:{}i:2;i:583;}i:10;a:3:{i:0;s:4:"html";i:1;a:1:{i:0;s:147:"
<iframe width="640" height="360" src="http://www.youtube.com/embed/JYzDp5JG9cY?list=PL6B687DD83D941664" frameborder="0" allowfullscreen></iframe>
";}i:2;i:616;}i:11;a:3:{i:0;s:5:"cdata";i:1;a:1:{i:0;s:0:"";}i:2;i:770;}i:12;a:3:{i:0;s:7:"p_close";i:1;a:0:{}i:2;i:770;}i:13;a:3:{i:0;s:13:"section_close";i:1;a:0:{}i:2;i:770;}i:14;a:3:{i:0;s:12:"document_end";i:1;a:0:{}i:2;i:770;}}