a:218:{i:0;a:3:{i:0;s:14:"document_start";i:1;a:0:{}i:2;i:0;}i:1;a:3:{i:0;s:6:"header";i:1;a:3:{i:0;s:11:"Be a tester";i:1;i:1;i:2;i:1;}i:2;i:1;}i:2;a:3:{i:0;s:12:"section_open";i:1;a:1:{i:0;i:1;}i:2;i:1;}i:3;a:3:{i:0;s:6:"p_open";i:1;a:0:{}i:2;i:1;}i:4;a:3:{i:0;s:5:"cdata";i:1;a:1:{i:0;s:157:"Depuis peu de temps, j'ai appris à être Tester Quality Assurance. Je ne connais pas encore les ficelles du métier,mais voici ce que j'ai appris jusqu'ici.";}i:2;i:27;}i:5;a:3:{i:0;s:7:"p_close";i:1;a:0:{}i:2;i:184;}i:6;a:3:{i:0;s:13:"section_close";i:1;a:0:{}i:2;i:186;}i:7;a:3:{i:0;s:6:"header";i:1;a:3:{i:0;s:11:"Vocabulaire";i:1;i:2;i:2;i:186;}i:2;i:186;}i:8;a:3:{i:0;s:12:"section_open";i:1;a:1:{i:0;i:2;}i:2;i:186;}i:9;a:3:{i:0;s:6:"p_open";i:1;a:0:{}i:2;i:186;}i:10;a:3:{i:0;s:5:"cdata";i:1;a:1:{i:0;s:25:"release:Sortie de version";}i:2;i:211;}i:11;a:3:{i:0;s:9:"linebreak";i:1;a:0:{}i:2;i:236;}i:12;a:3:{i:0;s:5:"cdata";i:1;a:1:{i:0;s:28:"
TDD:Test driven development";}i:2;i:238;}i:13;a:3:{i:0;s:9:"linebreak";i:1;a:0:{}i:2;i:266;}i:14;a:3:{i:0;s:5:"cdata";i:1;a:1:{i:0;s:32:"
BDD:Behavior Driven Development";}i:2;i:268;}i:15;a:3:{i:0;s:9:"linebreak";i:1;a:0:{}i:2;i:300;}i:16;a:3:{i:0;s:5:"cdata";i:1;a:1:{i:0;s:20:"
TBD:To be determine";}i:2;i:302;}i:17;a:3:{i:0;s:9:"linebreak";i:1;a:0:{}i:2;i:322;}i:18;a:3:{i:0;s:5:"cdata";i:1;a:1:{i:0;s:50:"
HUD:Head up display (méta données sur l'écran)";}i:2;i:324;}i:19;a:3:{i:0;s:9:"linebreak";i:1;a:0:{}i:2;i:374;}i:20;a:3:{i:0;s:5:"cdata";i:1;a:1:{i:0;s:23:"
DoD:Definition of done";}i:2;i:376;}i:21;a:3:{i:0;s:9:"linebreak";i:1;a:0:{}i:2;i:399;}i:22;a:3:{i:0;s:5:"cdata";i:1;a:1:{i:0;s:46:"
MileStone: Date de fin d'un charte de travail";}i:2;i:401;}i:23;a:3:{i:0;s:9:"linebreak";i:1;a:0:{}i:2;i:447;}i:24;a:3:{i:0;s:5:"cdata";i:1;a:1:{i:0;s:18:"
Asset: Ressources";}i:2;i:449;}i:25;a:3:{i:0;s:9:"linebreak";i:1;a:0:{}i:2;i:467;}i:26;a:3:{i:0;s:5:"cdata";i:1;a:1:{i:0;s:41:"
Idle: Tourner au ralenti, rester inactif";}i:2;i:469;}i:27;a:3:{i:0;s:9:"linebreak";i:1;a:0:{}i:2;i:510;}i:28;a:3:{i:0;s:5:"cdata";i:1;a:1:{i:0;s:21:"
Tiles: tuiles de jeu";}i:2;i:512;}i:29;a:3:{i:0;s:9:"linebreak";i:1;a:0:{}i:2;i:533;}i:30;a:3:{i:0;s:7:"p_close";i:1;a:0:{}i:2;i:535;}i:31;a:3:{i:0;s:13:"section_close";i:1;a:0:{}i:2;i:537;}i:32;a:3:{i:0;s:6:"header";i:1;a:3:{i:0;s:12:"Références";i:1;i:2;i:2;i:537;}i:2;i:537;}i:33;a:3:{i:0;s:12:"section_open";i:1;a:1:{i:0;i:2;}i:2;i:537;}i:34;a:3:{i:0;s:6:"p_open";i:1;a:0:{}i:2;i:537;}i:35;a:3:{i:0;s:12:"externallink";i:1;a:2:{i:0;s:64:"http://fr.wikipedia.org/wiki/M%C3%A9thode_du_canard_en_plastique";i:1;s:35:"La technique du canard en plastique";}i:2;i:563;}i:36;a:3:{i:0;s:9:"linebreak";i:1;a:0:{}i:2;i:667;}i:37;a:3:{i:0;s:5:"cdata";i:1;a:1:{i:0;s:1:"
";}i:2;i:669;}i:38;a:3:{i:0;s:12:"externallink";i:1;a:2:{i:0;s:42:"http://fr.wikipedia.org/wiki/Loi_de_Murphy";i:1;s:19:"Loi de Murphy (LEM)";}i:2;i:670;}i:39;a:3:{i:0;s:5:"cdata";i:1;a:1:{i:0;s:0:"";}i:2;i:736;}i:40;a:3:{i:0;s:7:"p_close";i:1;a:0:{}i:2;i:737;}i:41;a:3:{i:0;s:13:"section_close";i:1;a:0:{}i:2;i:737;}i:42;a:3:{i:0;s:6:"header";i:1;a:3:{i:0;s:8:"Your job";i:1;i:2;i:2;i:737;}i:2;i:737;}i:43;a:3:{i:0;s:12:"section_open";i:1;a:1:{i:0;i:2;}i:2;i:737;}i:44;a:3:{i:0;s:6:"p_open";i:1;a:0:{}i:2;i:737;}i:45;a:3:{i:0;s:11:"strong_open";i:1;a:0:{}i:2;i:758;}i:46;a:3:{i:0;s:13:"emphasis_open";i:1;a:0:{}i:2;i:760;}i:47;a:3:{i:0;s:5:"cdata";i:1;a:1:{i:0;s:8:"PIANo TV";}i:2;i:762;}i:48;a:3:{i:0;s:14:"emphasis_close";i:1;a:0:{}i:2;i:770;}i:49;a:3:{i:0;s:12:"strong_close";i:1;a:0:{}i:2;i:772;}i:50;a:3:{i:0;s:9:"linebreak";i:1;a:0:{}i:2;i:774;}i:51;a:3:{i:0;s:5:"cdata";i:1;a:1:{i:0;s:8:"
P: Play";}i:2;i:776;}i:52;a:3:{i:0;s:9:"linebreak";i:1;a:0:{}i:2;i:784;}i:53;a:3:{i:0;s:5:"cdata";i:1;a:1:{i:0;s:12:"
I: Identify";}i:2;i:786;}i:54;a:3:{i:0;s:9:"linebreak";i:1;a:0:{}i:2;i:798;}i:55;a:3:{i:0;s:5:"cdata";i:1;a:1:{i:0;s:11:"
A: Amplify";}i:2;i:800;}i:56;a:3:{i:0;s:9:"linebreak";i:1;a:0:{}i:2;i:811;}i:57;a:3:{i:0;s:5:"cdata";i:1;a:1:{i:0;s:10:"
N: Notify";}i:2;i:813;}i:58;a:3:{i:0;s:9:"linebreak";i:1;a:0:{}i:2;i:823;}i:59;a:3:{i:0;s:5:"cdata";i:1;a:1:{i:0;s:14:"
o: optionally";}i:2;i:825;}i:60;a:3:{i:0;s:9:"linebreak";i:1;a:0:{}i:2;i:839;}i:61;a:3:{i:0;s:7:"p_close";i:1;a:0:{}i:2;i:841;}i:62;a:3:{i:0;s:6:"p_open";i:1;a:0:{}i:2;i:841;}i:63;a:3:{i:0;s:5:"cdata";i:1;a:1:{i:0;s:8:"T: Test ";}i:2;i:843;}i:64;a:3:{i:0;s:9:"linebreak";i:1;a:0:{}i:2;i:851;}i:65;a:3:{i:0;s:5:"cdata";i:1;a:1:{i:0;s:4:"
and";}i:2;i:853;}i:66;a:3:{i:0;s:9:"linebreak";i:1;a:0:{}i:2;i:857;}i:67;a:3:{i:0;s:5:"cdata";i:1;a:1:{i:0;s:10:"
V: Verify";}i:2;i:859;}i:68;a:3:{i:0;s:9:"linebreak";i:1;a:0:{}i:2;i:869;}i:69;a:3:{i:0;s:7:"p_close";i:1;a:0:{}i:2;i:871;}i:70;a:3:{i:0;s:13:"section_close";i:1;a:0:{}i:2;i:873;}i:71;a:3:{i:0;s:6:"header";i:1;a:3:{i:0;s:5:"Rules";i:1;i:2;i:2;i:873;}i:2;i:873;}i:72;a:3:{i:0;s:12:"section_open";i:1;a:1:{i:0;i:2;}i:2;i:873;}i:73;a:3:{i:0;s:10:"listo_open";i:1;a:0:{}i:2;i:889;}i:74;a:3:{i:0;s:13:"listitem_open";i:1;a:1:{i:0;i:1;}i:2;i:889;}i:75;a:3:{i:0;s:16:"listcontent_open";i:1;a:0:{}i:2;i:889;}i:76;a:3:{i:0;s:5:"cdata";i:1;a:1:{i:0;s:13:" Do not panic";}i:2;i:893;}i:77;a:3:{i:0;s:17:"listcontent_close";i:1;a:0:{}i:2;i:906;}i:78;a:3:{i:0;s:14:"listitem_close";i:1;a:0:{}i:2;i:906;}i:79;a:3:{i:0;s:13:"listitem_open";i:1;a:1:{i:0;i:1;}i:2;i:906;}i:80;a:3:{i:0;s:16:"listcontent_open";i:1;a:0:{}i:2;i:906;}i:81;a:3:{i:0;s:5:"cdata";i:1;a:1:{i:0;s:13:" Trust no one";}i:2;i:910;}i:82;a:3:{i:0;s:17:"listcontent_close";i:1;a:0:{}i:2;i:923;}i:83;a:3:{i:0;s:14:"listitem_close";i:1;a:0:{}i:2;i:923;}i:84;a:3:{i:0;s:11:"listo_close";i:1;a:0:{}i:2;i:923;}i:85;a:3:{i:0;s:13:"section_close";i:1;a:0:{}i:2;i:925;}i:86;a:3:{i:0;s:6:"header";i:1;a:3:{i:0;s:4:"Tips";i:1;i:2;i:2;i:925;}i:2;i:925;}i:87;a:3:{i:0;s:12:"section_open";i:1;a:1:{i:0;i:2;}i:2;i:925;}i:88;a:3:{i:0;s:10:"listo_open";i:1;a:0:{}i:2;i:940;}i:89;a:3:{i:0;s:13:"listitem_open";i:1;a:1:{i:0;i:1;}i:2;i:940;}i:90;a:3:{i:0;s:16:"listcontent_open";i:1;a:0:{}i:2;i:940;}i:91;a:3:{i:0;s:5:"cdata";i:1;a:1:{i:0;s:95:" Do not just play, study the game and try to remember about everything you can at every moment.";}i:2;i:944;}i:92;a:3:{i:0;s:17:"listcontent_close";i:1;a:0:{}i:2;i:1039;}i:93;a:3:{i:0;s:14:"listitem_close";i:1;a:0:{}i:2;i:1039;}i:94;a:3:{i:0;s:13:"listitem_open";i:1;a:1:{i:0;i:1;}i:2;i:1039;}i:95;a:3:{i:0;s:16:"listcontent_open";i:1;a:0:{}i:2;i:1039;}i:96;a:3:{i:0;s:5:"cdata";i:1;a:1:{i:0;s:42:" Use the same vocabulaire as your coworker";}i:2;i:1043;}i:97;a:3:{i:0;s:17:"listcontent_close";i:1;a:0:{}i:2;i:1085;}i:98;a:3:{i:0;s:14:"listitem_close";i:1;a:0:{}i:2;i:1085;}i:99;a:3:{i:0;s:13:"listitem_open";i:1;a:1:{i:0;i:1;}i:2;i:1085;}i:100;a:3:{i:0;s:16:"listcontent_open";i:1;a:0:{}i:2;i:1085;}i:101;a:3:{i:0;s:5:"cdata";i:1;a:1:{i:0;s:114:" Be sure of what you notify, because you can lost a bit of your time but not the programmer that will fixe the bug";}i:2;i:1089;}i:102;a:3:{i:0;s:17:"listcontent_close";i:1;a:0:{}i:2;i:1203;}i:103;a:3:{i:0;s:14:"listitem_close";i:1;a:0:{}i:2;i:1203;}i:104;a:3:{i:0;s:13:"listitem_open";i:1;a:1:{i:0;i:1;}i:2;i:1203;}i:105;a:3:{i:0;s:16:"listcontent_open";i:1;a:0:{}i:2;i:1203;}i:106;a:3:{i:0;s:5:"cdata";i:1;a:1:{i:0;s:106:" Do not be afraid to asking you too mush questions and spoke about it with your cowoker when he is enable.";}i:2;i:1207;}i:107;a:3:{i:0;s:17:"listcontent_close";i:1;a:0:{}i:2;i:1313;}i:108;a:3:{i:0;s:14:"listitem_close";i:1;a:0:{}i:2;i:1313;}i:109;a:3:{i:0;s:11:"listo_close";i:1;a:0:{}i:2;i:1313;}i:110;a:3:{i:0;s:13:"section_close";i:1;a:0:{}i:2;i:1315;}i:111;a:3:{i:0;s:6:"header";i:1;a:3:{i:0;s:21:"Phrases toutes faites";i:1;i:2;i:2;i:1315;}i:2;i:1315;}i:112;a:3:{i:0;s:12:"section_open";i:1;a:1:{i:0;i:2;}i:2;i:1315;}i:113;a:3:{i:0;s:13:"section_close";i:1;a:0:{}i:2;i:1349;}i:114;a:3:{i:0;s:6:"header";i:1;a:3:{i:0;s:18:"Steps to reproduce";i:1;i:3;i:2;i:1349;}i:2;i:1349;}i:115;a:3:{i:0;s:12:"section_open";i:1;a:1:{i:0;i:3;}i:2;i:1349;}i:116;a:3:{i:0;s:13:"section_close";i:1;a:0:{}i:2;i:1378;}i:117;a:3:{i:0;s:6:"header";i:1;a:3:{i:0;s:6:"Type A";i:1;i:3;i:2;i:1378;}i:2;i:1378;}i:118;a:3:{i:0;s:12:"section_open";i:1;a:1:{i:0;i:3;}i:2;i:1378;}i:119;a:3:{i:0;s:10:"listo_open";i:1;a:0:{}i:2;i:1394;}i:120;a:3:{i:0;s:13:"listitem_open";i:1;a:1:{i:0;i:1;}i:2;i:1394;}i:121;a:3:{i:0;s:16:"listcontent_open";i:1;a:0:{}i:2;i:1394;}i:122;a:3:{i:0;s:5:"cdata";i:1;a:1:{i:0;s:32:" Start the game with any devices";}i:2;i:1398;}i:123;a:3:{i:0;s:17:"listcontent_close";i:1;a:0:{}i:2;i:1430;}i:124;a:3:{i:0;s:14:"listitem_close";i:1;a:0:{}i:2;i:1430;}i:125;a:3:{i:0;s:13:"listitem_open";i:1;a:1:{i:0;i:1;}i:2;i:1430;}i:126;a:3:{i:0;s:16:"listcontent_open";i:1;a:0:{}i:2;i:1430;}i:127;a:3:{i:0;s:5:"cdata";i:1;a:1:{i:0;s:8:" Select ";}i:2;i:1434;}i:128;a:3:{i:0;s:6:"entity";i:1;a:1:{i:0;s:3:"...";}i:2;i:1442;}i:129;a:3:{i:0;s:17:"listcontent_close";i:1;a:0:{}i:2;i:1445;}i:130;a:3:{i:0;s:14:"listitem_close";i:1;a:0:{}i:2;i:1445;}i:131;a:3:{i:0;s:13:"listitem_open";i:1;a:1:{i:0;i:1;}i:2;i:1445;}i:132;a:3:{i:0;s:16:"listcontent_open";i:1;a:0:{}i:2;i:1445;}i:133;a:3:{i:0;s:5:"cdata";i:1;a:1:{i:0;s:1:" ";}i:2;i:1449;}i:134;a:3:{i:0;s:6:"entity";i:1;a:1:{i:0;s:3:"...";}i:2;i:1450;}i:135;a:3:{i:0;s:17:"listcontent_close";i:1;a:0:{}i:2;i:1453;}i:136;a:3:{i:0;s:14:"listitem_close";i:1;a:0:{}i:2;i:1453;}i:137;a:3:{i:0;s:13:"listitem_open";i:1;a:1:{i:0;i:1;}i:2;i:1453;}i:138;a:3:{i:0;s:16:"listcontent_open";i:1;a:0:{}i:2;i:1453;}i:139;a:3:{i:0;s:5:"cdata";i:1;a:1:{i:0;s:14:" Observe that ";}i:2;i:1457;}i:140;a:3:{i:0;s:17:"listcontent_close";i:1;a:0:{}i:2;i:1471;}i:141;a:3:{i:0;s:14:"listitem_close";i:1;a:0:{}i:2;i:1471;}i:142;a:3:{i:0;s:13:"listitem_open";i:1;a:1:{i:0;i:1;}i:2;i:1471;}i:143;a:3:{i:0;s:16:"listcontent_open";i:1;a:0:{}i:2;i:1471;}i:144;a:3:{i:0;s:5:"cdata";i:1;a:1:{i:0;s:12:" Notice that";}i:2;i:1475;}i:145;a:3:{i:0;s:17:"listcontent_close";i:1;a:0:{}i:2;i:1487;}i:146;a:3:{i:0;s:14:"listitem_close";i:1;a:0:{}i:2;i:1487;}i:147;a:3:{i:0;s:11:"listo_close";i:1;a:0:{}i:2;i:1487;}i:148;a:3:{i:0;s:13:"section_close";i:1;a:0:{}i:2;i:1488;}i:149;a:3:{i:0;s:6:"header";i:1;a:3:{i:0;s:6:"Type B";i:1;i:3;i:2;i:1488;}i:2;i:1488;}i:150;a:3:{i:0;s:12:"section_open";i:1;a:1:{i:0;i:3;}i:2;i:1488;}i:151;a:3:{i:0;s:6:"p_open";i:1;a:0:{}i:2;i:1488;}i:152;a:3:{i:0;s:5:"cdata";i:1;a:1:{i:0;s:14:"Prerequisites:";}i:2;i:1505;}i:153;a:3:{i:0;s:6:"entity";i:1;a:1:{i:0;s:3:"...";}i:2;i:1519;}i:154;a:3:{i:0;s:9:"linebreak";i:1;a:0:{}i:2;i:1522;}i:155;a:3:{i:0;s:5:"cdata";i:1;a:1:{i:0;s:8:"
Steps: ";}i:2;i:1524;}i:156;a:3:{i:0;s:9:"linebreak";i:1;a:0:{}i:2;i:1532;}i:157;a:3:{i:0;s:7:"p_close";i:1;a:0:{}i:2;i:1534;}i:158;a:3:{i:0;s:10:"listo_open";i:1;a:0:{}i:2;i:1534;}i:159;a:3:{i:0;s:13:"listitem_open";i:1;a:1:{i:0;i:1;}i:2;i:1534;}i:160;a:3:{i:0;s:16:"listcontent_open";i:1;a:0:{}i:2;i:1534;}i:161;a:3:{i:0;s:5:"cdata";i:1;a:1:{i:0;s:23:" 1) The User launches X";}i:2;i:1538;}i:162;a:3:{i:0;s:9:"linebreak";i:1;a:0:{}i:2;i:1561;}i:163;a:3:{i:0;s:17:"listcontent_close";i:1;a:0:{}i:2;i:1563;}i:164;a:3:{i:0;s:14:"listitem_close";i:1;a:0:{}i:2;i:1563;}i:165;a:3:{i:0;s:13:"listitem_open";i:1;a:1:{i:0;i:1;}i:2;i:1563;}i:166;a:3:{i:0;s:16:"listcontent_open";i:1;a:0:{}i:2;i:1563;}i:167;a:3:{i:0;s:5:"cdata";i:1;a:1:{i:0;s:13:" 2) Selects Y";}i:2;i:1567;}i:168;a:3:{i:0;s:9:"linebreak";i:1;a:0:{}i:2;i:1580;}i:169;a:3:{i:0;s:17:"listcontent_close";i:1;a:0:{}i:2;i:1582;}i:170;a:3:{i:0;s:14:"listitem_close";i:1;a:0:{}i:2;i:1582;}i:171;a:3:{i:0;s:13:"listitem_open";i:1;a:1:{i:0;i:1;}i:2;i:1582;}i:172;a:3:{i:0;s:16:"listcontent_open";i:1;a:0:{}i:2;i:1582;}i:173;a:3:{i:0;s:5:"cdata";i:1;a:1:{i:0;s:17:" 3) Proceeds to Z";}i:2;i:1586;}i:174;a:3:{i:0;s:9:"linebreak";i:1;a:0:{}i:2;i:1603;}i:175;a:3:{i:0;s:17:"listcontent_close";i:1;a:0:{}i:2;i:1605;}i:176;a:3:{i:0;s:14:"listitem_close";i:1;a:0:{}i:2;i:1605;}i:177;a:3:{i:0;s:13:"listitem_open";i:1;a:1:{i:0;i:1;}i:2;i:1605;}i:178;a:3:{i:0;s:16:"listcontent_open";i:1;a:0:{}i:2;i:1605;}i:179;a:3:{i:0;s:5:"cdata";i:1;a:1:{i:0;s:4:" 4) ";}i:2;i:1609;}i:180;a:3:{i:0;s:6:"entity";i:1;a:1:{i:0;s:3:"...";}i:2;i:1613;}i:181;a:3:{i:0;s:9:"linebreak";i:1;a:0:{}i:2;i:1616;}i:182;a:3:{i:0;s:17:"listcontent_close";i:1;a:0:{}i:2;i:1618;}i:183;a:3:{i:0;s:14:"listitem_close";i:1;a:0:{}i:2;i:1618;}i:184;a:3:{i:0;s:11:"listo_close";i:1;a:0:{}i:2;i:1618;}i:185;a:3:{i:0;s:6:"p_open";i:1;a:0:{}i:2;i:1618;}i:186;a:3:{i:0;s:5:"cdata";i:1;a:1:{i:0;s:31:"Bug(10/10): Description du bug.";}i:2;i:1619;}i:187;a:3:{i:0;s:9:"linebreak";i:1;a:0:{}i:2;i:1650;}i:188;a:3:{i:0;s:7:"p_close";i:1;a:0:{}i:2;i:1652;}i:189;a:3:{i:0;s:13:"section_close";i:1;a:0:{}i:2;i:1654;}i:190;a:3:{i:0;s:6:"header";i:1;a:3:{i:0;s:15:"Short sentences";i:1;i:3;i:2;i:1654;}i:2;i:1654;}i:191;a:3:{i:0;s:12:"section_open";i:1;a:1:{i:0;i:3;}i:2;i:1654;}i:192;a:3:{i:0;s:10:"listu_open";i:1;a:0:{}i:2;i:1679;}i:193;a:3:{i:0;s:13:"listitem_open";i:1;a:1:{i:0;i:1;}i:2;i:1679;}i:194;a:3:{i:0;s:16:"listcontent_open";i:1;a:0:{}i:2;i:1679;}i:195;a:3:{i:0;s:5:"cdata";i:1;a:1:{i:0;s:62:" Please refer to the attached screenshot for visual reference.";}i:2;i:1683;}i:196;a:3:{i:0;s:17:"listcontent_close";i:1;a:0:{}i:2;i:1745;}i:197;a:3:{i:0;s:14:"listitem_close";i:1;a:0:{}i:2;i:1745;}i:198;a:3:{i:0;s:13:"listitem_open";i:1;a:1:{i:0;i:1;}i:2;i:1745;}i:199;a:3:{i:0;s:16:"listcontent_open";i:1;a:0:{}i:2;i:1745;}i:200;a:3:{i:0;s:5:"cdata";i:1;a:1:{i:0;s:11:" Not fixed ";}i:2;i:1749;}i:201;a:3:{i:0;s:6:"entity";i:1;a:1:{i:0;s:2:"=>";}i:2;i:1760;}i:202;a:3:{i:0;s:5:"cdata";i:1;a:1:{i:0;s:12:" same issue.";}i:2;i:1762;}i:203;a:3:{i:0;s:17:"listcontent_close";i:1;a:0:{}i:2;i:1774;}i:204;a:3:{i:0;s:14:"listitem_close";i:1;a:0:{}i:2;i:1774;}i:205;a:3:{i:0;s:13:"listitem_open";i:1;a:1:{i:0;i:1;}i:2;i:1774;}i:206;a:3:{i:0;s:16:"listcontent_open";i:1;a:0:{}i:2;i:1774;}i:207;a:3:{i:0;s:5:"cdata";i:1;a:1:{i:0;s:42:" Proceeds to the last section of the level";}i:2;i:1778;}i:208;a:3:{i:0;s:17:"listcontent_close";i:1;a:0:{}i:2;i:1820;}i:209;a:3:{i:0;s:14:"listitem_close";i:1;a:0:{}i:2;i:1820;}i:210;a:3:{i:0;s:13:"listitem_open";i:1;a:1:{i:0;i:1;}i:2;i:1820;}i:211;a:3:{i:0;s:16:"listcontent_open";i:1;a:0:{}i:2;i:1820;}i:212;a:3:{i:0;s:5:"cdata";i:1;a:1:{i:0;s:15:" Verified fixed";}i:2;i:1824;}i:213;a:3:{i:0;s:17:"listcontent_close";i:1;a:0:{}i:2;i:1839;}i:214;a:3:{i:0;s:14:"listitem_close";i:1;a:0:{}i:2;i:1839;}i:215;a:3:{i:0;s:11:"listu_close";i:1;a:0:{}i:2;i:1839;}i:216;a:3:{i:0;s:13:"section_close";i:1;a:0:{}i:2;i:1841;}i:217;a:3:{i:0;s:12:"document_end";i:1;a:0:{}i:2;i:1841;}}