a:197:{i:0;a:3:{i:0;s:14:"document_start";i:1;a:0:{}i:2;i:0;}i:1;a:3:{i:0;s:6:"header";i:1;a:3:{i:0;s:19:"Hello Documentation";i:1;i:1;i:2;i:1;}i:2;i:1;}i:2;a:3:{i:0;s:12:"section_open";i:1;a:1:{i:0;i:1;}i:2;i:1;}i:3;a:3:{i:0;s:6:"p_open";i:1;a:0:{}i:2;i:1;}i:4;a:3:{i:0;s:5:"cdata";i:1;a:1:{i:0;s:95:"Bienvenu sur la partie documentation de mon site web.
Ici, est stocké les données propres aux";}i:2;i:35;}i:5;a:3:{i:0;s:7:"p_close";i:1;a:0:{}i:2;i:130;}i:6;a:3:{i:0;s:10:"listu_open";i:1;a:0:{}i:2;i:130;}i:7;a:3:{i:0;s:13:"listitem_open";i:1;a:1:{i:0;i:1;}i:2;i:130;}i:8;a:3:{i:0;s:16:"listcontent_open";i:1;a:0:{}i:2;i:130;}i:9;a:3:{i:0;s:5:"cdata";i:1;a:1:{i:0;s:27:" Applications développées";}i:2;i:134;}i:10;a:3:{i:0;s:17:"listcontent_close";i:1;a:0:{}i:2;i:161;}i:11;a:3:{i:0;s:14:"listitem_close";i:1;a:0:{}i:2;i:161;}i:12;a:3:{i:0;s:13:"listitem_open";i:1;a:1:{i:0;i:1;}i:2;i:161;}i:13;a:3:{i:0;s:16:"listcontent_open";i:1;a:0:{}i:2;i:161;}i:14;a:3:{i:0;s:5:"cdata";i:1;a:1:{i:0;s:21:" Tutoriels, rappelles";}i:2;i:165;}i:15;a:3:{i:0;s:6:"entity";i:1;a:1:{i:0;s:3:"...";}i:2;i:186;}i:16;a:3:{i:0;s:17:"listcontent_close";i:1;a:0:{}i:2;i:189;}i:17;a:3:{i:0;s:14:"listitem_close";i:1;a:0:{}i:2;i:189;}i:18;a:3:{i:0;s:13:"listitem_open";i:1;a:1:{i:0;i:1;}i:2;i:189;}i:19;a:3:{i:0;s:16:"listcontent_open";i:1;a:0:{}i:2;i:189;}i:20;a:3:{i:0;s:5:"cdata";i:1;a:1:{i:0;s:19:" Informations, news";}i:2;i:193;}i:21;a:3:{i:0;s:6:"entity";i:1;a:1:{i:0;s:3:"...";}i:2;i:212;}i:22;a:3:{i:0;s:17:"listcontent_close";i:1;a:0:{}i:2;i:215;}i:23;a:3:{i:0;s:14:"listitem_close";i:1;a:0:{}i:2;i:215;}i:24;a:3:{i:0;s:11:"listu_close";i:1;a:0:{}i:2;i:215;}i:25;a:3:{i:0;s:6:"p_open";i:1;a:0:{}i:2;i:215;}i:26;a:3:{i:0;s:13:"emphasis_open";i:1;a:0:{}i:2;i:217;}i:27;a:3:{i:0;s:5:"cdata";i:1;a:1:{i:0;s:213:"Ce wiki est en développement et est à l'état de brouillon, je ne garantis pas encore la qualité, la structure ou l'orthographe, mais je  travaillerai dans le but d'avoir un version correct pour la fin Janvier.";}i:2;i:219;}i:28;a:3:{i:0;s:9:"linebreak";i:1;a:0:{}i:2;i:432;}i:29;a:3:{i:0;s:5:"cdata";i:1;a:1:{i:0;s:1:"
";}i:2;i:434;}i:30;a:3:{i:0;s:14:"emphasis_close";i:1;a:0:{}i:2;i:435;}i:31;a:3:{i:0;s:14:"monospace_open";i:1;a:0:{}i:2;i:437;}i:32;a:3:{i:0;s:13:"emphasis_open";i:1;a:0:{}i:2;i:439;}i:33;a:3:{i:0;s:5:"cdata";i:1;a:1:{i:0;s:38:"(J'utilise DokuWiki qui appartient à ";}i:2;i:441;}i:34;a:3:{i:0;s:12:"externallink";i:1;a:2:{i:0;s:43:"http://www.splitbrain.org/projects/dokuwiki";i:1;s:13:" Andreas Gohr";}i:2;i:479;}i:35;a:3:{i:0;s:5:"cdata";i:1;a:1:{i:0;s:1:")";}i:2;i:540;}i:36;a:3:{i:0;s:14:"emphasis_close";i:1;a:0:{}i:2;i:541;}i:37;a:3:{i:0;s:15:"monospace_close";i:1;a:0:{}i:2;i:543;}i:38;a:3:{i:0;s:9:"linebreak";i:1;a:0:{}i:2;i:545;}i:39;a:3:{i:0;s:7:"p_close";i:1;a:0:{}i:2;i:547;}i:40;a:3:{i:0;s:6:"p_open";i:1;a:0:{}i:2;i:547;}i:41;a:3:{i:0;s:13:"emphasis_open";i:1;a:0:{}i:2;i:550;}i:42;a:3:{i:0;s:5:"cdata";i:1;a:1:{i:0;s:94:"Si malgré ça vous désirez accéder à ma documentation, contactez-moi: streeeloi@gmail.com.";}i:2;i:552;}i:43;a:3:{i:0;s:14:"emphasis_close";i:1;a:0:{}i:2;i:646;}i:44;a:3:{i:0;s:5:"cdata";i:1;a:1:{i:0;s:0:"";}i:2;i:648;}i:45;a:3:{i:0;s:7:"p_close";i:1;a:0:{}i:2;i:649;}i:46;a:3:{i:0;s:2:"hr";i:1;a:0:{}i:2;i:649;}i:47;a:3:{i:0;s:13:"section_close";i:1;a:0:{}i:2;i:712;}i:48;a:3:{i:0;s:6:"header";i:1;a:3:{i:0;s:8:"Site web";i:1;i:2;i:2;i:712;}i:2;i:712;}i:49;a:3:{i:0;s:12:"section_open";i:1;a:1:{i:0;i:2;}i:2;i:712;}i:50;a:3:{i:0;s:6:"p_open";i:1;a:0:{}i:2;i:712;}i:51;a:3:{i:0;s:12:"externallink";i:1;a:2:{i:0;s:29:"http://gamerkitapplication.be";i:1;s:9:"Portfolio";}i:2;i:733;}i:52;a:3:{i:0;s:5:"cdata";i:1;a:1:{i:0;s:1:"
";}i:2;i:776;}i:53;a:3:{i:0;s:12:"externallink";i:1;a:2:{i:0;s:56:"http://gamerkitapplication.be/mantis/bug_report_page.php";i:1;s:11:"Bug tracker";}i:2;i:777;}i:54;a:3:{i:0;s:7:"p_close";i:1;a:0:{}i:2;i:849;}i:55;a:3:{i:0;s:13:"section_close";i:1;a:0:{}i:2;i:852;}i:56;a:3:{i:0;s:6:"header";i:1;a:3:{i:0;s:6:"Severs";i:1;i:2;i:2;i:852;}i:2;i:852;}i:57;a:3:{i:0;s:12:"section_open";i:1;a:1:{i:0;i:2;}i:2;i:852;}i:58;a:3:{i:0;s:6:"p_open";i:1;a:0:{}i:2;i:852;}i:59;a:3:{i:0;s:5:"cdata";i:1;a:1:{i:0;s:19:"TS3: 178.170.111.64";}i:2;i:871;}i:60;a:3:{i:0;s:7:"p_close";i:1;a:0:{}i:2;i:891;}i:61;a:3:{i:0;s:2:"hr";i:1;a:0:{}i:2;i:891;}i:62;a:3:{i:0;s:13:"section_close";i:1;a:0:{}i:2;i:953;}i:63;a:3:{i:0;s:6:"header";i:1;a:3:{i:0;s:16:"Ma documentation";i:1;i:2;i:2;i:953;}i:2;i:953;}i:64;a:3:{i:0;s:12:"section_open";i:1;a:1:{i:0;i:2;}i:2;i:953;}i:65;a:3:{i:0;s:13:"section_close";i:1;a:0:{}i:2;i:982;}i:66;a:3:{i:0;s:6:"header";i:1;a:3:{i:0;s:22:"Logiciels et sites web";i:1;i:3;i:2;i:982;}i:2;i:982;}i:67;a:3:{i:0;s:12:"section_open";i:1;a:1:{i:0;i:3;}i:2;i:982;}i:68;a:3:{i:0;s:6:"p_open";i:1;a:0:{}i:2;i:982;}i:69;a:3:{i:0;s:12:"internallink";i:1;a:2:{i:0;s:11:"docs:mantis";i:1;s:6:"Mantis";}i:2;i:1016;}i:70;a:3:{i:0;s:5:"cdata";i:1;a:1:{i:0;s:1:"
";}i:2;i:1038;}i:71;a:3:{i:0;s:12:"internallink";i:1;a:2:{i:0;s:13:"docs:dokuwiki";i:1;s:8:"DokuWiki";}i:2;i:1039;}i:72;a:3:{i:0;s:7:"p_close";i:1;a:0:{}i:2;i:1065;}i:73;a:3:{i:0;s:13:"section_close";i:1;a:0:{}i:2;i:1067;}i:74;a:3:{i:0;s:6:"header";i:1;a:3:{i:0;s:9:"Tutoriels";i:1;i:3;i:2;i:1067;}i:2;i:1067;}i:75;a:3:{i:0;s:12:"section_open";i:1;a:1:{i:0;i:3;}i:2;i:1067;}i:76;a:3:{i:0;s:6:"p_open";i:1;a:0:{}i:2;i:1067;}i:77;a:3:{i:0;s:12:"deleted_open";i:1;a:0:{}i:2;i:1087;}i:78;a:3:{i:0;s:12:"internallink";i:1;a:2:{i:0;s:21:"tutoriels:be_a_tester";i:1;s:11:"Be a tester";}i:2;i:1092;}i:79;a:3:{i:0;s:13:"deleted_close";i:1;a:0:{}i:2;i:1129;}i:80;a:3:{i:0;s:7:"p_close";i:1;a:0:{}i:2;i:1135;}i:81;a:3:{i:0;s:13:"section_close";i:1;a:0:{}i:2;i:1138;}i:82;a:3:{i:0;s:6:"header";i:1;a:3:{i:0;s:11:"Video games";i:1;i:3;i:2;i:1138;}i:2;i:1138;}i:83;a:3:{i:0;s:12:"section_open";i:1;a:1:{i:0;i:3;}i:2;i:1138;}i:84;a:3:{i:0;s:6:"p_open";i:1;a:0:{}i:2;i:1138;}i:85;a:3:{i:0;s:12:"internallink";i:1;a:2:{i:0;s:20:"games:donjonDefender";i:1;s:15:"Donjon Defender";}i:2;i:1161;}i:86;a:3:{i:0;s:7:"p_close";i:1;a:0:{}i:2;i:1201;}i:87;a:3:{i:0;s:6:"p_open";i:1;a:0:{}i:2;i:1201;}i:88;a:3:{i:0;s:12:"internallink";i:1;a:2:{i:0;s:9:"games:FTL";i:1;s:20:"FTL: Fast then light";}i:2;i:1204;}i:89;a:3:{i:0;s:5:"cdata";i:1;a:1:{i:0;s:0:"";}i:2;i:1238;}i:90;a:3:{i:0;s:7:"p_close";i:1;a:0:{}i:2;i:1239;}i:91;a:3:{i:0;s:2:"hr";i:1;a:0:{}i:2;i:1239;}i:92;a:3:{i:0;s:13:"section_close";i:1;a:0:{}i:2;i:1301;}i:93;a:3:{i:0;s:6:"header";i:1;a:3:{i:0;s:13:"Programmation";i:1;i:2;i:2;i:1301;}i:2;i:1301;}i:94;a:3:{i:0;s:12:"section_open";i:1;a:1:{i:0;i:2;}i:2;i:1301;}i:95;a:3:{i:0;s:13:"section_close";i:1;a:0:{}i:2;i:1328;}i:96;a:3:{i:0;s:6:"header";i:1;a:3:{i:0;s:16:"Projects Library";i:1;i:3;i:2;i:1328;}i:2;i:1328;}i:97;a:3:{i:0;s:12:"section_open";i:1;a:1:{i:0;i:3;}i:2;i:1328;}i:98;a:3:{i:0;s:6:"p_open";i:1;a:0:{}i:2;i:1328;}i:99;a:3:{i:0;s:12:"deleted_open";i:1;a:0:{}i:2;i:1355;}i:100;a:3:{i:0;s:12:"internallink";i:1;a:2:{i:0;s:20:"developement:projets";i:1;s:25:"Projets en développement";}i:2;i:1360;}i:101;a:3:{i:0;s:13:"deleted_close";i:1;a:0:{}i:2;i:1410;}i:102;a:3:{i:0;s:5:"cdata";i:1;a:1:{i:0;s:0:"";}i:2;i:1416;}i:103;a:3:{i:0;s:7:"p_close";i:1;a:0:{}i:2;i:1417;}i:104;a:3:{i:0;s:13:"section_close";i:1;a:0:{}i:2;i:1417;}i:105;a:3:{i:0;s:6:"header";i:1;a:3:{i:0;s:13:"Codes Library";i:1;i:3;i:2;i:1417;}i:2;i:1417;}i:106;a:3:{i:0;s:12:"section_open";i:1;a:1:{i:0;i:3;}i:2;i:1417;}i:107;a:3:{i:0;s:6:"p_open";i:1;a:0:{}i:2;i:1417;}i:108;a:3:{i:0;s:12:"internallink";i:1;a:2:{i:0;s:23:"programmation:manoeuvre";i:1;s:19:"Manoeuvre classique";}i:2;i:1441;}i:109;a:3:{i:0;s:5:"cdata";i:1;a:1:{i:0;s:0:"";}i:2;i:1488;}i:110;a:3:{i:0;s:7:"p_close";i:1;a:0:{}i:2;i:1489;}i:111;a:3:{i:0;s:13:"section_close";i:1;a:0:{}i:2;i:1489;}i:112;a:3:{i:0;s:6:"header";i:1;a:3:{i:0;s:10:"Synthèses";i:1;i:3;i:2;i:1489;}i:2;i:1489;}i:113;a:3:{i:0;s:12:"section_open";i:1;a:1:{i:0;i:3;}i:2;i:1489;}i:114;a:3:{i:0;s:6:"p_open";i:1;a:0:{}i:2;i:1489;}i:115;a:3:{i:0;s:12:"deleted_open";i:1;a:0:{}i:2;i:1510;}i:116;a:3:{i:0;s:12:"internallink";i:1;a:2:{i:0;s:18:"programmation:java";i:1;s:4:"Java";}i:2;i:1515;}i:117;a:3:{i:0;s:13:"deleted_close";i:1;a:0:{}i:2;i:1542;}i:118;a:3:{i:0;s:5:"cdata";i:1;a:1:{i:0;s:1:"
";}i:2;i:1548;}i:119;a:3:{i:0;s:12:"deleted_open";i:1;a:0:{}i:2;i:1549;}i:120;a:3:{i:0;s:12:"internallink";i:1;a:2:{i:0;s:21:"programmation:android";i:1;s:7:"Android";}i:2;i:1554;}i:121;a:3:{i:0;s:13:"deleted_close";i:1;a:0:{}i:2;i:1587;}i:122;a:3:{i:0;s:5:"cdata";i:1;a:1:{i:0;s:1:"
";}i:2;i:1593;}i:123;a:3:{i:0;s:12:"deleted_open";i:1;a:0:{}i:2;i:1594;}i:124;a:3:{i:0;s:12:"internallink";i:1;a:2:{i:0;s:17:"programmation:c++";i:1;s:3:"c++";}i:2;i:1599;}i:125;a:3:{i:0;s:13:"deleted_close";i:1;a:0:{}i:2;i:1624;}i:126;a:3:{i:0;s:7:"p_close";i:1;a:0:{}i:2;i:1630;}i:127;a:3:{i:0;s:2:"hr";i:1;a:0:{}i:2;i:1633;}i:128;a:3:{i:0;s:13:"section_close";i:1;a:0:{}i:2;i:1639;}i:129;a:3:{i:0;s:6:"header";i:1;a:3:{i:0;s:9:"Recherche";i:1;i:2;i:2;i:1639;}i:2;i:1639;}i:130;a:3:{i:0;s:12:"section_open";i:1;a:1:{i:0;i:2;}i:2;i:1639;}i:131;a:3:{i:0;s:13:"section_close";i:1;a:0:{}i:2;i:1660;}i:132;a:3:{i:0;s:6:"header";i:1;a:3:{i:0;s:7:"Testing";i:1;i:3;i:2;i:1660;}i:2;i:1660;}i:133;a:3:{i:0;s:12:"section_open";i:1;a:1:{i:0;i:3;}i:2;i:1660;}i:134;a:3:{i:0;s:6:"p_open";i:1;a:0:{}i:2;i:1660;}i:135;a:3:{i:0;s:12:"deleted_open";i:1;a:0:{}i:2;i:1678;}i:136;a:3:{i:0;s:12:"internallink";i:1;a:2:{i:0;s:9:"study:TDD";i:1;s:3:"TDD";}i:2;i:1683;}i:137;a:3:{i:0;s:13:"deleted_close";i:1;a:0:{}i:2;i:1700;}i:138;a:3:{i:0;s:5:"cdata";i:1;a:1:{i:0;s:1:" ";}i:2;i:1706;}i:139;a:3:{i:0;s:12:"deleted_open";i:1;a:0:{}i:2;i:1707;}i:140;a:3:{i:0;s:12:"internallink";i:1;a:2:{i:0;s:9:"study:BDD";i:1;s:3:"BDD";}i:2;i:1712;}i:141;a:3:{i:0;s:13:"deleted_close";i:1;a:0:{}i:2;i:1729;}i:142;a:3:{i:0;s:12:"deleted_open";i:1;a:0:{}i:2;i:1735;}i:143;a:3:{i:0;s:5:"cdata";i:1;a:1:{i:0;s:1:" ";}i:2;i:1740;}i:144;a:3:{i:0;s:12:"internallink";i:1;a:2:{i:0;s:11:"study:SCRUM";i:1;s:5:"SCRUM";}i:2;i:1741;}i:145;a:3:{i:0;s:13:"deleted_close";i:1;a:0:{}i:2;i:1762;}i:146;a:3:{i:0;s:7:"p_close";i:1;a:0:{}i:2;i:1768;}i:147;a:3:{i:0;s:6:"p_open";i:1;a:0:{}i:2;i:1768;}i:148;a:3:{i:0;s:12:"deleted_open";i:1;a:0:{}i:2;i:1770;}i:149;a:3:{i:0;s:12:"internallink";i:1;a:2:{i:0;s:14:"study:Cucumber";i:1;s:8:"Cucumber";}i:2;i:1775;}i:150;a:3:{i:0;s:13:"deleted_close";i:1;a:0:{}i:2;i:1802;}i:151;a:3:{i:0;s:5:"cdata";i:1;a:1:{i:0;s:1:" ";}i:2;i:1808;}i:152;a:3:{i:0;s:12:"deleted_open";i:1;a:0:{}i:2;i:1809;}i:153;a:3:{i:0;s:12:"internallink";i:1;a:2:{i:0;s:14:"study:Calabash";i:1;s:8:"Calabash";}i:2;i:1814;}i:154;a:3:{i:0;s:13:"deleted_close";i:1;a:0:{}i:2;i:1841;}i:155;a:3:{i:0;s:5:"cdata";i:1;a:1:{i:0;s:0:"";}i:2;i:1847;}i:156;a:3:{i:0;s:7:"p_close";i:1;a:0:{}i:2;i:1848;}i:157;a:3:{i:0;s:13:"section_close";i:1;a:0:{}i:2;i:1848;}i:158;a:3:{i:0;s:6:"header";i:1;a:3:{i:0;s:19:"Mantis/DokuWiki/TDD";i:1;i:3;i:2;i:1848;}i:2;i:1848;}i:159;a:3:{i:0;s:12:"section_open";i:1;a:1:{i:0;i:3;}i:2;i:1848;}i:160;a:3:{i:0;s:6:"p_open";i:1;a:0:{}i:2;i:1848;}i:161;a:3:{i:0;s:12:"deleted_open";i:1;a:0:{}i:2;i:1878;}i:162;a:3:{i:0;s:12:"internallink";i:1;a:2:{i:0;s:27:"study:linkMantisDokuWikiTDD";i:1;s:23:"Comment lier l'ensemble";}i:2;i:1883;}i:163;a:3:{i:0;s:13:"deleted_close";i:1;a:0:{}i:2;i:1938;}i:164;a:3:{i:0;s:7:"p_close";i:1;a:0:{}i:2;i:1944;}i:165;a:3:{i:0;s:13:"section_close";i:1;a:0:{}i:2;i:1947;}i:166;a:3:{i:0;s:6:"header";i:1;a:3:{i:0;s:12:"Soup de mots";i:1;i:3;i:2;i:1947;}i:2;i:1947;}i:167;a:3:{i:0;s:12:"section_open";i:1;a:1:{i:0;i:3;}i:2;i:1947;}i:168;a:3:{i:0;s:6:"p_open";i:1;a:0:{}i:2;i:1947;}i:169;a:3:{i:0;s:12:"internallink";i:1;a:2:{i:0;s:18:"study:soup:culture";i:1;s:7:"Culture";}i:2;i:1969;}i:170;a:3:{i:0;s:9:"linebreak";i:1;a:0:{}i:2;i:1999;}i:171;a:3:{i:0;s:5:"cdata";i:1;a:1:{i:0;s:1:"
";}i:2;i:2001;}i:172;a:3:{i:0;s:12:"internallink";i:1;a:2:{i:0;s:17:"study:soup:loisir";i:1;s:6:"Loisir";}i:2;i:2002;}i:173;a:3:{i:0;s:7:"p_close";i:1;a:0:{}i:2;i:2030;}i:174;a:3:{i:0;s:2:"hr";i:1;a:0:{}i:2;i:2030;}i:175;a:3:{i:0;s:13:"section_close";i:1;a:0:{}i:2;i:2036;}i:176;a:3:{i:0;s:6:"header";i:1;a:3:{i:0;s:6:"Média";i:1;i:2;i:2;i:2036;}i:2;i:2036;}i:177;a:3:{i:0;s:12:"section_open";i:1;a:1:{i:0;i:2;}i:2;i:2036;}i:178;a:3:{i:0;s:6:"p_open";i:1;a:0:{}i:2;i:2036;}i:179;a:3:{i:0;s:12:"internallink";i:1;a:2:{i:0;s:12:"media:videos";i:1;s:7:"Vidéos";}i:2;i:2054;}i:180;a:3:{i:0;s:9:"linebreak";i:1;a:0:{}i:2;i:2078;}i:181;a:3:{i:0;s:7:"p_close";i:1;a:0:{}i:2;i:2080;}i:182;a:3:{i:0;s:2:"hr";i:1;a:0:{}i:2;i:2083;}i:183;a:3:{i:0;s:13:"section_close";i:1;a:0:{}i:2;i:2091;}i:184;a:3:{i:0;s:6:"header";i:1;a:3:{i:0;s:5:"Admin";i:1;i:2;i:2;i:2091;}i:2;i:2091;}i:185;a:3:{i:0;s:12:"section_open";i:1;a:1:{i:0;i:2;}i:2;i:2091;}i:186;a:3:{i:0;s:6:"p_open";i:1;a:0:{}i:2;i:2091;}i:187;a:3:{i:0;s:12:"internallink";i:1;a:2:{i:0;s:10:"admin:data";i:1;s:6:"Tavern";}i:2;i:2109;}i:188;a:3:{i:0;s:9:"linebreak";i:1;a:0:{}i:2;i:2130;}i:189;a:3:{i:0;s:5:"cdata";i:1;a:1:{i:0;s:1:"
";}i:2;i:2132;}i:190;a:3:{i:0;s:12:"internallink";i:1;a:2:{i:0;s:13:"admin:projets";i:1;s:17:"Etat d'avancement";}i:2;i:2133;}i:191;a:3:{i:0;s:9:"linebreak";i:1;a:0:{}i:2;i:2168;}i:192;a:3:{i:0;s:5:"cdata";i:1;a:1:{i:0;s:1:"
";}i:2;i:2170;}i:193;a:3:{i:0;s:12:"internallink";i:1;a:2:{i:0;s:13:"admin:casiers";i:1;s:7:"Casiers";}i:2;i:2171;}i:194;a:3:{i:0;s:7:"p_close";i:1;a:0:{}i:2;i:2196;}i:195;a:3:{i:0;s:13:"section_close";i:1;a:0:{}i:2;i:2199;}i:196;a:3:{i:0;s:12:"document_end";i:1;a:0:{}i:2;i:2199;}}