a:37:{i:0;a:3:{i:0;s:14:"document_start";i:1;a:0:{}i:2;i:0;}i:1;a:3:{i:0;s:6:"header";i:1;a:3:{i:0;s:6:"Tavern";i:1;i:1;i:2;i:1;}i:2;i:1;}i:2;a:3:{i:0;s:12:"section_open";i:1;a:1:{i:0;i:1;}i:2;i:1;}i:3;a:3:{i:0;s:6:"p_open";i:1;a:0:{}i:2;i:1;}i:4;a:3:{i:0;s:5:"cdata";i:1;a:1:{i:0;s:23:"Serveur: 178.170.111.64";}i:2;i:23;}i:5;a:3:{i:0;s:9:"linebreak";i:1;a:0:{}i:2;i:46;}i:6;a:3:{i:0;s:5:"cdata";i:1;a:1:{i:0;s:10:"
Service: ";}i:2;i:48;}i:7;a:3:{i:0;s:12:"externallink";i:1;a:2:{i:0;s:33:"http://178.170.111.64/phpmyadmin/";i:1;s:10:"phpMyAdmin";}i:2;i:58;}i:8;a:3:{i:0;s:7:"p_close";i:1;a:0:{}i:2;i:106;}i:9;a:3:{i:0;s:6:"p_open";i:1;a:0:{}i:2;i:106;}i:10;a:3:{i:0;s:5:"cdata";i:1;a:1:{i:0;s:21:"TS3: 178.170.111.64 (";}i:2;i:108;}i:11;a:3:{i:0;s:12:"externallink";i:1;a:2:{i:0;s:40:"http://www.teamspeak.com/?page=downloads";i:1;s:8:"download";}i:2;i:129;}i:12;a:3:{i:0;s:5:"cdata";i:1;a:1:{i:0;s:2:")
";}i:2;i:182;}i:13;a:3:{i:0;s:4:"html";i:1;a:1:{i:0;s:278:"<br/>
<a href="http://www.tsviewer.com/index.php?page=ts_viewer&ID=1002099" target="_blank"><img src="http://www.tsviewer.com/promotion/dynamic_sig/sig.php/clan468x60_freel/1002099.png" alt="Les Raclures TeamSpeak Viewer" title="Les Raclures TeamSpeak Viewer" border="0" /></a>
";}i:2;i:190;}i:14;a:3:{i:0;s:7:"p_close";i:1;a:0:{}i:2;i:475;}i:15;a:3:{i:0;s:6:"p_open";i:1;a:0:{}i:2;i:475;}i:16;a:3:{i:0;s:5:"cdata";i:1;a:1:{i:0;s:10:"Site web: ";}i:2;i:477;}i:17;a:3:{i:0;s:12:"externallink";i:1;a:2:{i:0;s:41:"http://www.gamerkitapplication.be/mantis/";i:1;s:6:"Mantis";}i:2;i:487;}i:18;a:3:{i:0;s:5:"cdata";i:1;a:1:{i:0;s:2:", ";}i:2;i:539;}i:19;a:3:{i:0;s:12:"externallink";i:1;a:2:{i:0;s:34:"http://www.gamerkitapplication.be/";i:1;s:3:"GKA";}i:2;i:541;}i:20;a:3:{i:0;s:5:"cdata";i:1;a:1:{i:0;s:1:",";}i:2;i:583;}i:21;a:3:{i:0;s:12:"externallink";i:1;a:2:{i:0;s:48:"http://www.gamerkitapplication.be/documentation/";i:1;s:5:" Wiki";}i:2;i:584;}i:22;a:3:{i:0;s:5:"cdata";i:1;a:1:{i:0;s:2:", ";}i:2;i:642;}i:23;a:3:{i:0;s:12:"externallink";i:1;a:2:{i:0;s:22:"http://178.170.111.64/";i:1;s:6:"TuxDom";}i:2;i:644;}i:24;a:3:{i:0;s:5:"cdata";i:1;a:1:{i:0;s:1:".";}i:2;i:677;}i:25;a:3:{i:0;s:7:"p_close";i:1;a:0:{}i:2;i:678;}i:26;a:3:{i:0;s:6:"p_open";i:1;a:0:{}i:2;i:678;}i:27;a:3:{i:0;s:5:"cdata";i:1;a:1:{i:0;s:8:"GitHub: ";}i:2;i:680;}i:28;a:3:{i:0;s:12:"externallink";i:1;a:2:{i:0;s:28:"https://github.com/VgQD/VgQD";i:1;s:4:"VgQD";}i:2;i:688;}i:29;a:3:{i:0;s:5:"cdata";i:1;a:1:{i:0;s:18:" (Eloi's projects)";}i:2;i:725;}i:30;a:3:{i:0;s:7:"p_close";i:1;a:0:{}i:2;i:743;}i:31;a:3:{i:0;s:6:"p_open";i:1;a:0:{}i:2;i:743;}i:32;a:3:{i:0;s:5:"cdata";i:1;a:1:{i:0;s:10:"Facebook: ";}i:2;i:745;}i:33;a:3:{i:0;s:12:"externallink";i:1;a:2:{i:0;s:48:"https://www.facebook.com/groups/378799295489890/";i:1;s:13:"TuxDomination";}i:2;i:755;}i:34;a:3:{i:0;s:7:"p_close";i:1;a:0:{}i:2;i:821;}i:35;a:3:{i:0;s:13:"section_close";i:1;a:0:{}i:2;i:824;}i:36;a:3:{i:0;s:12:"document_end";i:1;a:0:{}i:2;i:824;}}